{"type":"FeatureCollection","crs" : {
    "type" : "name",
    "properties" : {
      "name" : "urn:ogc:def:crs:EPSG::4326"
    }
  },
"features":[
{
	"type":"Feature","id":"0", "properties": {
		"distance":	249648.4,
		"duration":	12403.964998779367,
		"summary":	"207min, 249.65km",
		"name":"TecnoParque, Santa Barbara, Azcapotzalco, CDMX - Parque Industrial Queretaro, Querétaro"
	},
	"geometry":{"type": "LineString", "coordinates":[[-99.17845,19.50396],[-99.17834000000001,19.5043],[-99.17835,19.50434],[-99.17913,19.50459],[-99.17883999999999,19.50541],[-99.17879000000001,19.50557],[-99.17967,19.50584],[-99.17975999999999,19.50586],[-99.17977000000001,19.50587],[-99.17979,19.50586],[-99.1798,19.50586],[-99.17980999999999,19.50585],[-99.17982000000001,19.50584],[-99.17992000000001,19.50556],[-99.18017999999999,19.50481],[-99.18038,19.50419],[-99.18061,19.50357],[-99.18069999999999,19.50329],[-99.18071000000001,19.50326],[-99.18075000000002,19.50315],[-99.18301,19.50388],[-99.18314999999998,19.50392],[-99.18326,19.50392],[-99.18340000000001,19.50394],[-99.18349000000001,19.50396],[-99.18357,19.50398],[-99.18431000000001,19.50411],[-99.18513,19.50427],[-99.18609999999998,19.50445],[-99.18647,19.50452],[-99.18689000000001,19.5046],[-99.18724,19.50466],[-99.18765999999998,19.50474],[-99.18791999999999,19.50479],[-99.18815000000001,19.50483],[-99.18832,19.50486],[-99.18848000000001,19.50489],[-99.18880999999999,19.50496],[-99.18922000000001,19.50503],[-99.18935999999999,19.50506],[-99.18976000000001,19.50514],[-99.18987000000001,19.50516],[-99.18988,19.50516],[-99.18989999999999,19.50516],[-99.18991,19.50516],[-99.18997000000002,19.50515],[-99.19008,19.50519],[-99.19011999999999,19.50521],[-99.19014999999999,19.50523],[-99.19018,19.50524],[-99.19021000000001,19.50525],[-99.19024,19.50527],[-99.19027,19.50529],[-99.19034000000001,19.50534],[-99.19041,19.50539],[-99.19048000000001,19.50545],[-99.1905,19.50546],[-99.19052000000001,19.50548],[-99.19053,19.5055],[-99.19055,19.50552],[-99.19059000000001,19.50558],[-99.19064000000002,19.50565],[-99.19065999999998,19.50569],[-99.19069999999999,19.50576],[-99.19074999999999,19.50587],[-99.19076000000001,19.50591],[-99.19078,19.50597],[-99.19078,19.506],[-99.19079000000001,19.50604],[-99.19081000000001,19.50616],[-99.19096,19.50702],[-99.19118,19.50832],[-99.19125999999999,19.50875],[-99.19127,19.50883],[-99.19132999999999,19.50922],[-99.19148000000001,19.51007],[-99.19158,19.51059],[-99.19159999999998,19.51073],[-99.19173000000001,19.51152],[-99.19190999999999,19.51253],[-99.19198000000002,19.51298],[-99.19199999999999,19.51307],[-99.19214,19.51387],[-99.19217999999999,19.5141],[-99.19224,19.51444],[-99.19235999999999,19.5151],[-99.19238,19.51525],[-99.19239,19.5153],[-99.19239,19.51532],[-99.19239,19.51535],[-99.19238,19.51543],[-99.19237000000001,19.51546],[-99.19233,19.51559],[-99.19229,19.51566],[-99.19225999999999,19.51571],[-99.19215000000001,19.51586],[-99.19199999999999,19.51606],[-99.19177000000001,19.51635],[-99.19170000000001,19.51645],[-99.19165000000001,19.51653],[-99.19161,19.51661],[-99.19158999999999,19.51667],[-99.19158,19.51674],[-99.19157,19.51678],[-99.19157,19.51684],[-99.19157,19.51689],[-99.19158,19.51696],[-99.19158,19.51697],[-99.19158999999999,19.517],[-99.19167,19.51745],[-99.19168999999999,19.51753],[-99.19186000000002,19.51856],[-99.19194,19.51898],[-99.19199,19.51926],[-99.19203000000002,19.51953],[-99.19232000000001,19.52117],[-99.19254000000001,19.52236],[-99.19251,19.52236],[-99.19247999999999,19.52238],[-99.19244999999999,19.52239],[-99.19242999999999,19.52241],[-99.19240000000001,19.52243],[-99.19238,19.52245],[-99.19237000000001,19.52247],[-99.19235000000001,19.52251],[-99.19233,19.52259],[-99.19232000000001,19.52264],[-99.19232000000001,19.52269],[-99.19233,19.52276],[-99.19235999999999,19.52284],[-99.19238,19.52289],[-99.19241,19.52294],[-99.19244000000001,19.52298],[-99.19249000000001,19.52303],[-99.19253000000002,19.52307],[-99.19259,19.52309],[-99.19264,19.5231],[-99.19267000000001,19.52328],[-99.19268,19.52333],[-99.19270000000002,19.52343],[-99.19274,19.52366],[-99.19284,19.52417],[-99.19288,19.52441],[-99.19291,19.52461],[-99.19292999999999,19.52468],[-99.19296,19.52488],[-99.19328,19.52677],[-99.19329999999999,19.52686],[-99.19362,19.52875],[-99.19369999999999,19.52916],[-99.19374000000001,19.52938],[-99.1938,19.52975],[-99.19385,19.53004],[-99.19386,19.53005],[-99.19387999999998,19.53007],[-99.19387999999998,19.53008],[-99.19389,19.53011],[-99.1939,19.53017],[-99.19392000000002,19.53027],[-99.19394,19.53032],[-99.19396999999999,19.53037],[-99.19398000000001,19.53039],[-99.19401000000001,19.53044],[-99.19407,19.53055],[-99.19411,19.53062],[-99.19415000000001,19.5307],[-99.19425,19.53095],[-99.19432999999998,19.53108],[-99.19455000000001,19.53106],[-99.19470000000001,19.53105],[-99.19481000000002,19.53104],[-99.19487999999998,19.53104],[-99.19495000000001,19.53105],[-99.19501,19.53106],[-99.19507,19.53109],[-99.19513000000001,19.53112],[-99.19517999999999,19.53128],[-99.19520000000001,19.53133],[-99.19521,19.53137],[-99.19522000000001,19.53145],[-99.19522000000001,19.53156],[-99.19523,19.53179],[-99.19517000000001,19.53189],[-99.19477999999999,19.53376],[-99.19475999999999,19.53388],[-99.19477999999999,19.53402],[-99.19474,19.53421],[-99.19468999999999,19.53451],[-99.19468000000001,19.53452],[-99.19464000000002,19.53481],[-99.19458,19.53523],[-99.19453000000002,19.53559],[-99.19450999999999,19.53568],[-99.19449,19.53578],[-99.19461,19.53581],[-99.19477000000001,19.53586],[-99.19519,19.53593],[-99.19558000000002,19.53598],[-99.19605,19.53604],[-99.19678999999999,19.5361],[-99.19683000000001,19.53611],[-99.19689,19.53611],[-99.19752,19.53611],[-99.19789,19.5361],[-99.19879,19.53603],[-99.19886,19.53603],[-99.19926000000001,19.53598],[-99.19946,19.53597],[-99.19964999999999,19.53596],[-99.1999,19.53598],[-99.20085,19.53606],[-99.20178,19.53613],[-99.20242000000002,19.53616],[-99.20263,19.53617],[-99.20272,19.53619],[-99.20276999999999,19.5362],[-99.20296999999999,19.53625],[-99.2038,19.53645],[-99.20408000000001,19.53653],[-99.20417000000001,19.53655],[-99.20435000000001,19.5366],[-99.20504999999999,19.53678],[-99.20523,19.53683],[-99.20602,19.53703],[-99.20625,19.5371],[-99.20638000000001,19.53714],[-99.20648999999999,19.5372],[-99.20665,19.53731],[-99.20693000000001,19.5375],[-99.20735000000001,19.53783],[-99.20747,19.53791],[-99.20759,19.53797],[-99.20771999999998,19.53802],[-99.20792,19.53809],[-99.20838999999998,19.53824],[-99.20898999999999,19.53845],[-99.20943000000001,19.53861],[-99.20977000000001,19.53872],[-99.20984,19.53874],[-99.21005000000001,19.53879],[-99.21041,19.53889],[-99.21070999999999,19.53899],[-99.21101,19.5391],[-99.21111000000001,19.53913],[-99.21123,19.53918],[-99.21132000000002,19.53922],[-99.21137000000002,19.53924],[-99.21138999999998,19.53926],[-99.21142,19.53928],[-99.21142999999999,19.53928],[-99.21147000000001,19.53933],[-99.21149000000001,19.53936],[-99.21151,19.53938],[-99.21151999999999,19.53942],[-99.21154000000001,19.53958],[-99.21154999999999,19.53959],[-99.21156000000001,19.53992],[-99.21158,19.54003],[-99.21159999999999,19.54012],[-99.21160999999998,19.54019],[-99.21164,19.54027],[-99.21165000000002,19.5403],[-99.21169,19.54036],[-99.21173,19.54041],[-99.21178999999999,19.54046],[-99.21181,19.54065],[-99.21212,19.54071],[-99.21214999999999,19.54071],[-99.21231999999999,19.54074],[-99.21247,19.54077],[-99.21277999999998,19.54081],[-99.21290999999999,19.54082],[-99.21315,19.54086],[-99.21322000000001,19.54087],[-99.21331000000002,19.54091],[-99.21339,19.54095],[-99.21344000000001,19.54099],[-99.21348000000002,19.54103],[-99.21351,19.54107],[-99.21353000000001,19.54112],[-99.21354999999998,19.54117],[-99.21325,19.54165],[-99.21307,19.54196],[-99.21288000000001,19.54226],[-99.21234,19.54312],[-99.21226000000002,19.54324],[-99.21225,19.54325],[-99.2122,19.54333],[-99.21166000000001,19.5441],[-99.21109999999999,19.54502],[-99.21098000000002,19.54522],[-99.21098000000002,19.54557],[-99.21064,19.5461],[-99.21051,19.54632],[-99.20847000000001,19.54958],[-99.20778,19.55065],[-99.2073,19.55141],[-99.20724,19.55151],[-99.20717999999999,19.5516],[-99.20681000000002,19.55219],[-99.20665999999999,19.55246],[-99.20657,19.55265],[-99.20652,19.55275],[-99.20629,19.55324],[-99.2062,19.55357],[-99.20610999999998,19.55402],[-99.20605999999999,19.55435],[-99.20604000000002,19.55464],[-99.20603,19.55505],[-99.20605999999999,19.55611],[-99.20619000000001,19.55926],[-99.20632999999998,19.56137],[-99.20635,19.5617],[-99.20635,19.56189],[-99.20636,19.56215],[-99.20636999999999,19.56239],[-99.20636999999999,19.56241],[-99.20636999999999,19.56262],[-99.20641999999999,19.56315],[-99.20646000000001,19.56343],[-99.20652,19.56371],[-99.20660000000001,19.56399],[-99.20674,19.56435],[-99.20681999999999,19.56455],[-99.20696,19.56482],[-99.20714,19.56511],[-99.20753000000002,19.56562],[-99.20773,19.56583],[-99.20792,19.56607],[-99.20834000000001,19.56658],[-99.20863,19.56701],[-99.20875,19.56728],[-99.20881,19.56758],[-99.20887000000002,19.56814],[-99.20887000000002,19.56844],[-99.20883000000001,19.56874],[-99.20872,19.56912],[-99.20859999999999,19.5695],[-99.20834000000001,19.57039],[-99.20801,19.57165],[-99.20795,19.57206],[-99.20796,19.57242],[-99.20802000000001,19.57297],[-99.20804999999999,19.57333],[-99.20811999999999,19.57424],[-99.20813,19.57509],[-99.20807000000001,19.57572],[-99.20798000000002,19.5761],[-99.20782000000001,19.57656],[-99.20775999999999,19.57669],[-99.20756,19.57708],[-99.20734,19.57746],[-99.20734,19.57747],[-99.20734,19.57748],[-99.20719,19.57774],[-99.20713000000001,19.57786],[-99.20706,19.57798],[-99.20675,19.57855],[-99.20660000000001,19.57883],[-99.20615999999998,19.57956],[-99.20517,19.58123],[-99.20496,19.58162],[-99.20486,19.58186],[-99.20476999999998,19.58218],[-99.20475,19.58231],[-99.20470000000002,19.58264],[-99.20452,19.58458],[-99.20448000000002,19.58486],[-99.20447,19.58493],[-99.20446,19.58496],[-99.20444999999999,19.58499],[-99.20442,19.58511],[-99.20432000000001,19.5855],[-99.20414,19.58582],[-99.20381000000002,19.58628],[-99.20224,19.58796],[-99.202,19.58829],[-99.20187000000001,19.58858],[-99.20181,19.58871],[-99.20166,19.58918],[-99.20159,19.58988],[-99.20169,19.59156],[-99.20170999999999,19.59182],[-99.20171999999998,19.5919],[-99.20174,19.592],[-99.20175999999999,19.59219],[-99.20182000000001,19.59277],[-99.20184,19.59374],[-99.20182000000001,19.59405],[-99.20178,19.59437],[-99.20173,19.59462],[-99.20166999999999,19.5948],[-99.20156,19.59507],[-99.20141,19.5954],[-99.20116,19.59579],[-99.20084,19.59621],[-99.20070999999999,19.59634],[-99.20060000000001,19.59644],[-99.20041999999999,19.59659],[-99.20023000000001,19.59672],[-99.19998999999999,19.59687],[-99.19964999999999,19.59704],[-99.19946,19.59711],[-99.19916000000001,19.59722],[-99.19884999999999,19.5973],[-99.19834,19.59738],[-99.19816,19.59741],[-99.19778,19.59745],[-99.19775,19.59745],[-99.19767,19.59747],[-99.19760000000001,19.59748],[-99.19753,19.59749],[-99.19747,19.5975],[-99.19741999999999,19.5975],[-99.19664,19.59758],[-99.19597,19.59762],[-99.19559999999999,19.59765],[-99.19508999999999,19.59771],[-99.19475999999999,19.59775],[-99.19445,19.59779],[-99.19408,19.59783],[-99.1935,19.5979],[-99.19326000000001,19.59793],[-99.19292999999999,19.59796],[-99.19257,19.59801],[-99.19212,19.59806],[-99.19162,19.59813],[-99.19123,19.59822],[-99.19095,19.59832],[-99.19082,19.59838],[-99.19033,19.59864],[-99.19001,19.59887],[-99.18974,19.59918],[-99.18939,19.59956],[-99.18925000000002,19.59973],[-99.18916,19.59986],[-99.18899,19.60013],[-99.18887999999998,19.60034],[-99.18882000000001,19.60048],[-99.18875999999999,19.60062],[-99.18870999999999,19.60078],[-99.18868000000001,19.60088],[-99.18866,19.60101],[-99.18863999999999,19.60114],[-99.18863,19.60126],[-99.18862,19.60157],[-99.18863999999999,19.60173],[-99.18863999999999,19.60185],[-99.18866,19.60197],[-99.18885,19.60336],[-99.18889,19.60361],[-99.18912,19.60507],[-99.18944999999999,19.60695],[-99.18947999999999,19.6071],[-99.1895,19.60723],[-99.18970000000002,19.60845],[-99.18976999999998,19.60889],[-99.18996,19.61009],[-99.19011,19.611],[-99.19029000000001,19.61205],[-99.19034000000001,19.61245],[-99.191,19.61629],[-99.19102,19.61642],[-99.19103,19.61647],[-99.19107,19.61675],[-99.19147,19.61912],[-99.19162,19.62018],[-99.19170000000001,19.62056],[-99.1918,19.62117],[-99.19194,19.62201],[-99.19217999999999,19.62348],[-99.19222000000001,19.62369],[-99.19223,19.62376],[-99.19224,19.62379],[-99.19241,19.62468],[-99.19249000000001,19.62515],[-99.19256,19.62563],[-99.19302999999999,19.62839],[-99.19314,19.62902],[-99.19323,19.62956],[-99.19361000000001,19.6319],[-99.19470000000001,19.63865],[-99.19516,19.64138],[-99.19533,19.64224],[-99.19554000000001,19.64356],[-99.19626000000001,19.64771],[-99.19631,19.648],[-99.19631999999999,19.64827],[-99.19653,19.64947],[-99.19661000000001,19.65001],[-99.19667,19.65041],[-99.19673,19.65077],[-99.19678,19.65109],[-99.19681,19.65129],[-99.19732999999998,19.65433],[-99.19735,19.65448],[-99.19737999999998,19.65463],[-99.19745,19.65515],[-99.19782999999998,19.65746],[-99.19785,19.65751],[-99.19785,19.65755],[-99.19795000000001,19.65791],[-99.19817999999999,19.65935],[-99.19826999999998,19.65986],[-99.19858000000002,19.66176],[-99.19859,19.66186],[-99.19864,19.66215],[-99.19882000000001,19.66329],[-99.19911000000001,19.6652],[-99.19918,19.66551],[-99.19959000000002,19.66815],[-99.19964999999999,19.66846],[-99.19978,19.66914],[-99.1998,19.66936],[-99.19985,19.66961],[-99.19992000000002,19.6699],[-99.19996999999999,19.67013],[-99.20012,19.67107],[-99.20014999999999,19.67132],[-99.20031000000002,19.67218],[-99.20149000000001,19.67932],[-99.20153000000002,19.67956],[-99.20159,19.67994],[-99.20159999999999,19.68],[-99.20161,19.68005],[-99.20170999999999,19.68062],[-99.20175999999999,19.6809],[-99.202,19.6824],[-99.20224,19.68381],[-99.20263,19.68642],[-99.20285,19.68748],[-99.20291,19.68784],[-99.20295,19.68813],[-99.20326000000001,19.69],[-99.20355000000001,19.69177],[-99.20389,19.69402],[-99.20403,19.69486],[-99.20406,19.69502],[-99.20425,19.69611],[-99.20437,19.69689],[-99.20439,19.69701],[-99.20444999999999,19.69738],[-99.20452,19.69779],[-99.20459,19.69818],[-99.20465000000002,19.69855],[-99.20471999999998,19.69894],[-99.20475,19.69911],[-99.20479,19.69931],[-99.20486,19.69971],[-99.20493999999998,19.70014],[-99.20498000000002,19.7004],[-99.20507000000001,19.70117],[-99.20533,19.70258],[-99.20545,19.70323],[-99.20547999999999,19.70346],[-99.20551,19.7037],[-99.20571000000001,19.70481],[-99.20605999999999,19.70687],[-99.20631,19.70851],[-99.20655000000001,19.71006],[-99.20656,19.71009],[-99.20662,19.71052],[-99.20663999999999,19.71066],[-99.20677000000001,19.71131],[-99.2068,19.71148],[-99.20685,19.71172],[-99.20708999999999,19.71308],[-99.20719,19.71383],[-99.20726000000002,19.7143],[-99.20739,19.71499],[-99.20761,19.71627],[-99.20770999999999,19.71682],[-99.20847999999999,19.72131],[-99.20884,19.72369],[-99.209,19.72476],[-99.20926000000002,19.72632],[-99.20957,19.72823],[-99.20957,19.72824],[-99.20958,19.72828],[-99.20998999999999,19.73082],[-99.20999999999998,19.73088],[-99.21057999999999,19.73426],[-99.21123,19.73787],[-99.21146,19.73922],[-99.21149000000001,19.73939],[-99.21171999999999,19.74075],[-99.21173,19.74085],[-99.21196999999999,19.74224],[-99.21212,19.7431],[-99.21267,19.74643],[-99.21292,19.74796],[-99.21339999999999,19.75082],[-99.21366999999998,19.75245],[-99.21368,19.75252],[-99.2137,19.7526],[-99.21411000000001,19.75505],[-99.21416000000001,19.75539],[-99.21466000000001,19.75842],[-99.21473,19.75884],[-99.21512,19.7612],[-99.21519000000001,19.76166],[-99.21534,19.76254],[-99.21565999999999,19.76447],[-99.21576999999999,19.76505],[-99.21590999999999,19.7659],[-99.21608999999999,19.76692],[-99.21614,19.76731],[-99.21617000000001,19.76746],[-99.2163,19.76836],[-99.21657,19.76994],[-99.2167,19.77066],[-99.21672000000001,19.77075],[-99.21679,19.77123],[-99.21706,19.77275],[-99.21716999999998,19.77338],[-99.21737,19.77461],[-99.2174,19.77478],[-99.21753,19.77558],[-99.21759,19.77582],[-99.21764,19.77602],[-99.21771,19.77624],[-99.21776999999999,19.77642],[-99.21787000000002,19.77668],[-99.21798,19.77697],[-99.21809,19.77723],[-99.21813,19.7773],[-99.21814999999999,19.77736],[-99.21816000000001,19.77736],[-99.21823999999999,19.77754],[-99.21829,19.77765],[-99.21836,19.77776],[-99.21845,19.77792],[-99.2187,19.77836],[-99.21876,19.77846],[-99.21900000000001,19.77884],[-99.21946,19.77947],[-99.21974,19.77982],[-99.2203,19.78058],[-99.22083999999998,19.78134],[-99.22096999999999,19.78153],[-99.22166000000001,19.78261],[-99.22247,19.78383],[-99.22257000000001,19.78399],[-99.22262000000001,19.78405],[-99.22402,19.78611],[-99.22441000000001,19.7867],[-99.22483000000001,19.78732],[-99.22632,19.78957],[-99.2304,19.79564],[-99.23103999999999,19.79659],[-99.23221,19.79834],[-99.2332,19.79985],[-99.23344000000002,19.80029],[-99.23372999999998,19.80088],[-99.23405,19.80162],[-99.23437,19.80225],[-99.23484000000001,19.80333],[-99.23486,19.80336],[-99.23494999999998,19.80356],[-99.23671,19.80743],[-99.23829000000001,19.81084],[-99.23973000000001,19.814],[-99.24012999999999,19.81494],[-99.24015,19.81497],[-99.24016000000002,19.815],[-99.24072999999999,19.81629],[-99.24094,19.81675],[-99.24108,19.81701],[-99.24119,19.8172],[-99.24133000000002,19.8174],[-99.24151999999999,19.81764],[-99.24182,19.81799],[-99.24247,19.81875],[-99.24357000000001,19.82],[-99.24370999999999,19.82016],[-99.24384000000001,19.82032],[-99.24513,19.8218],[-99.24594000000002,19.82271],[-99.24621999999999,19.82304],[-99.24706999999998,19.82405],[-99.24767000000001,19.82468],[-99.24786,19.82487],[-99.24802,19.82501],[-99.24825,19.82518],[-99.24841000000001,19.82529],[-99.24863000000001,19.82543],[-99.24892,19.82558],[-99.24930999999999,19.82577],[-99.25005,19.82608],[-99.25055999999999,19.8263],[-99.25388,19.82766],[-99.25446000000001,19.8279],[-99.25606000000002,19.82855],[-99.25608,19.82856],[-99.25677,19.82885],[-99.25686,19.82889],[-99.25723999999998,19.82904],[-99.26078,19.83051],[-99.26291999999999,19.83138],[-99.26307000000001,19.83144],[-99.26636000000001,19.83278],[-99.26775000000001,19.83334],[-99.26871,19.83374],[-99.26983,19.8342],[-99.27030000000001,19.83439],[-99.27088000000001,19.83465],[-99.27140000000001,19.83496],[-99.27196999999998,19.83539],[-99.27249999999999,19.83586],[-99.273,19.83639],[-99.27348000000001,19.83694],[-99.27385999999999,19.8374],[-99.27405,19.83761],[-99.27407,19.83764],[-99.27423999999999,19.83782],[-99.2752,19.83889],[-99.27554000000001,19.83928],[-99.27728999999999,19.84116],[-99.27841999999998,19.84245],[-99.27943000000001,19.84359],[-99.28057999999999,19.84492],[-99.28213999999998,19.84665],[-99.28323,19.84787],[-99.28367,19.84843],[-99.28433,19.84917],[-99.28541000000001,19.85038],[-99.28553000000001,19.85052],[-99.28557000000002,19.85056],[-99.28576,19.85079],[-99.28579000000002,19.85081],[-99.28697000000001,19.85214],[-99.28704000000001,19.85223],[-99.28768,19.85285],[-99.28774999999999,19.85292],[-99.28849,19.85355],[-99.28871,19.85373],[-99.2889,19.85388],[-99.28969999999998,19.85455],[-99.29061,19.85532],[-99.29093,19.85559],[-99.29130999999998,19.85588],[-99.29170000000001,19.85611],[-99.29203000000001,19.85628],[-99.29228999999999,19.85639],[-99.29268,19.85654],[-99.29300000000001,19.85664],[-99.29340000000001,19.85677],[-99.29377,19.85689],[-99.29407999999999,19.85699],[-99.29424999999999,19.85704],[-99.29468,19.85717],[-99.29900000000001,19.85854],[-99.30058,19.85901],[-99.30168000000001,19.85933],[-99.30193,19.85942],[-99.30255,19.85961],[-99.30301,19.85978],[-99.30352000000002,19.85999],[-99.30408999999999,19.86025],[-99.30655,19.86135],[-99.307,19.86152],[-99.30773000000001,19.86177],[-99.30833,19.86192],[-99.30902999999999,19.86206],[-99.30931000000001,19.86212],[-99.30986000000002,19.86225],[-99.31022,19.86233],[-99.31332999999998,19.86299],[-99.31385,19.86311],[-99.31435999999999,19.86322],[-99.31487000000001,19.86333],[-99.31492000000002,19.86334],[-99.31538999999999,19.86344],[-99.3159,19.86355],[-99.3164,19.86365],[-99.3169,19.86376],[-99.31740000000001,19.86387],[-99.31791,19.864],[-99.3184,19.86414],[-99.31889,19.8643],[-99.31936,19.86448],[-99.31982000000001,19.86466],[-99.32029,19.86483],[-99.32075,19.86501],[-99.32121000000001,19.86518],[-99.32168,19.86536],[-99.32214000000002,19.86554],[-99.32260000000001,19.86571],[-99.32307,19.86589],[-99.32354000000001,19.86607],[-99.324,19.86625],[-99.32445,19.86642],[-99.3249,19.86659],[-99.32532999999998,19.86675],[-99.32576000000002,19.86691],[-99.32619,19.86708],[-99.32662999999999,19.86724],[-99.32706,19.86741],[-99.32749000000001,19.86757],[-99.32792000000002,19.86773],[-99.32836999999999,19.8679],[-99.32881000000002,19.86807],[-99.32922000000001,19.86824],[-99.32973,19.86848],[-99.33017,19.86871],[-99.33059,19.86898],[-99.331,19.86929],[-99.33138000000001,19.86962],[-99.33174,19.86997],[-99.33208999999999,19.87033],[-99.33244999999999,19.87069],[-99.33282000000001,19.87107],[-99.33319,19.87145],[-99.33357,19.87184],[-99.33387000000002,19.87214],[-99.33395,19.87222],[-99.33418,19.87246],[-99.33433000000001,19.87261],[-99.33434,19.87262],[-99.33474,19.87302],[-99.33476999999999,19.87305],[-99.33513000000001,19.87343],[-99.33552,19.87382],[-99.33983000000001,19.87838],[-99.34180000000001,19.88048],[-99.34235,19.88116],[-99.34265000000002,19.88183],[-99.34269000000001,19.88195],[-99.34276,19.8822],[-99.34292000000001,19.88316],[-99.343,19.88383],[-99.34309,19.88442],[-99.34309999999999,19.88448],[-99.34309999999999,19.88451],[-99.34311000000001,19.88452],[-99.34314000000001,19.88474],[-99.34338999999999,19.88651],[-99.34351,19.88681],[-99.34365,19.88716],[-99.34396,19.88808],[-99.34426000000002,19.88888],[-99.34439,19.88921],[-99.34457999999999,19.88971],[-99.34462000000001,19.88981],[-99.34463,19.88982],[-99.34466999999998,19.88991],[-99.34549999999999,19.89153],[-99.34578000000001,19.89201],[-99.34624,19.8928],[-99.34629,19.89291],[-99.34633000000001,19.89297],[-99.34634,19.89301],[-99.34643,19.89317],[-99.34669,19.89361],[-99.34676999999999,19.89376],[-99.34677999999998,19.89378],[-99.34708000000001,19.89429],[-99.34754,19.89516],[-99.34756,19.89519],[-99.34791,19.89583],[-99.34793000000002,19.89588],[-99.34797,19.89597],[-99.34799999999999,19.89604],[-99.34809,19.89625],[-99.34823,19.89648],[-99.34886,19.89746],[-99.34896000000001,19.8976],[-99.34902,19.89773],[-99.34923000000001,19.89808],[-99.34958,19.89871],[-99.34998,19.89942],[-99.35016000000002,19.89994],[-99.35021000000002,19.90044],[-99.3502,19.90085],[-99.35012,19.90141],[-99.3501,19.90154],[-99.35005000000001,19.9017],[-99.34997,19.90196],[-99.34984,19.90254],[-99.34969,19.90401],[-99.34968000000001,19.90432],[-99.3497,19.90456],[-99.34974,19.90472],[-99.34984,19.90511],[-99.34997,19.90552],[-99.35041,19.90629],[-99.35074,19.90675],[-99.35088000000002,19.9069],[-99.35161000000001,19.90748],[-99.35166999999998,19.90753],[-99.35175,19.9076],[-99.35218,19.90801],[-99.35245999999999,19.90828],[-99.35286000000001,19.90865],[-99.35375000000001,19.90952],[-99.35478000000001,19.91047],[-99.3548,19.91049],[-99.35516999999999,19.91073],[-99.35597,19.91115],[-99.35838,19.9123],[-99.35942,19.91283],[-99.36009,19.91319],[-99.36051000000001,19.91344],[-99.36187,19.91425],[-99.36194000000002,19.9143],[-99.36246,19.91462],[-99.36284000000001,19.91486],[-99.36295000000001,19.91494],[-99.36337,19.91524],[-99.36377,19.91552],[-99.36418000000001,19.9158],[-99.36508000000001,19.91626],[-99.36594,19.91679],[-99.36672000000002,19.91729],[-99.36718000000001,19.91758],[-99.36745999999998,19.91782],[-99.36775,19.91809],[-99.36812999999998,19.91847],[-99.3687,19.91907],[-99.36955,19.91999],[-99.36969000000001,19.92014],[-99.36997,19.92044],[-99.37025,19.92074],[-99.37054999999999,19.92104],[-99.37083999999999,19.92135],[-99.37114,19.92167],[-99.37145000000001,19.922],[-99.37177,19.92232],[-99.37208,19.92265],[-99.37239,19.92298],[-99.37269000000001,19.9233],[-99.37299,19.92362],[-99.3733,19.92395],[-99.37361,19.92428],[-99.37392,19.92461],[-99.37427,19.92499],[-99.37461000000002,19.92536],[-99.37495999999999,19.92572],[-99.37529000000001,19.92609],[-99.37563,19.92646],[-99.37597,19.92683],[-99.37631,19.92719],[-99.37665,19.92755],[-99.37698,19.92789],[-99.37732,19.92821],[-99.37769,19.92849],[-99.3781,19.92874],[-99.37855,19.92897],[-99.37900999999999,19.92917],[-99.37922999999999,19.92927],[-99.37948,19.92938],[-99.37993,19.92961],[-99.38035000000001,19.92989],[-99.38072,19.93022],[-99.38088000000001,19.93038],[-99.38105,19.93056],[-99.38126,19.93084],[-99.38140000000001,19.93113],[-99.38157000000001,19.93148],[-99.38177,19.93202],[-99.38206999999999,19.93289],[-99.38227999999999,19.93336],[-99.38240999999998,19.93361],[-99.38284000000002,19.93425],[-99.38296000000001,19.93442],[-99.38321999999999,19.93475],[-99.38343,19.935],[-99.38361,19.93525],[-99.38395999999999,19.93574],[-99.38432,19.93622],[-99.38467999999999,19.9367],[-99.38504,19.93719],[-99.38539999999999,19.93767],[-99.38576000000001,19.93814],[-99.38611,19.93861],[-99.38628,19.93886],[-99.38633,19.93891],[-99.38642,19.93904],[-99.38645,19.93907],[-99.38678,19.93952],[-99.38711000000001,19.93995],[-99.38741,19.94039],[-99.38769000000001,19.94082],[-99.3877,19.94083],[-99.38798,19.9413],[-99.38824000000001,19.94175],[-99.38849,19.94217],[-99.38871,19.94255],[-99.38872000000001,19.94257],[-99.38873999999998,19.94262],[-99.38875,19.94264],[-99.38881000000001,19.94275],[-99.38892,19.94294],[-99.38911,19.94328],[-99.38930000000001,19.94361],[-99.38952000000001,19.94393],[-99.38976,19.94424],[-99.39004,19.94453],[-99.39034,19.9448],[-99.39069000000001,19.94505],[-99.39107000000001,19.94526],[-99.39146000000001,19.94544],[-99.39184,19.94558],[-99.39222,19.94568],[-99.3926,19.94577],[-99.39297999999999,19.94585],[-99.39335000000001,19.94593],[-99.39374000000001,19.94604],[-99.39411,19.94616],[-99.39448,19.94631],[-99.39478,19.94646],[-99.39484,19.9465],[-99.39523,19.9467],[-99.39564,19.94692],[-99.39606000000001,19.94715],[-99.39639,19.94734],[-99.39690000000002,19.9476],[-99.39739,19.94787],[-99.39784,19.94812],[-99.39829000000002,19.94838],[-99.39873999999999,19.94863],[-99.39917,19.94887],[-99.39955999999999,19.94908],[-99.39991999999998,19.94928],[-99.40028,19.94948],[-99.40063999999998,19.94967],[-99.40098999999999,19.94987],[-99.40133,19.95005],[-99.40137,19.95008],[-99.40166000000001,19.95023],[-99.40199,19.95041],[-99.40233000000001,19.9506],[-99.40267,19.95079],[-99.40303,19.95098],[-99.40339,19.95118],[-99.40376000000001,19.95138],[-99.40415,19.9516],[-99.40456,19.95182],[-99.40497000000001,19.95205],[-99.40537999999999,19.95228],[-99.40577999999999,19.95251],[-99.40617,19.95273],[-99.40656,19.95294],[-99.40694000000001,19.95315],[-99.40730999999998,19.95336],[-99.40761000000001,19.95352],[-99.40766000000001,19.95355],[-99.40791000000002,19.95368],[-99.40828999999999,19.95386],[-99.40869999999998,19.95403],[-99.40909000000001,19.95418],[-99.40964000000001,19.95438],[-99.41003000000001,19.95452],[-99.41034000000001,19.95467],[-99.41063999999999,19.95481],[-99.41094,19.95499],[-99.41102999999998,19.95505],[-99.41117,19.95515],[-99.41128999999999,19.95524],[-99.41141000000002,19.95533],[-99.41152,19.95543],[-99.41162,19.95552],[-99.41172,19.9556],[-99.41181,19.95568],[-99.41189,19.95576],[-99.41199,19.95585],[-99.41207999999999,19.95594],[-99.41218000000002,19.95603],[-99.41226,19.95611],[-99.41235000000002,19.95619],[-99.41244,19.95626],[-99.41252000000002,19.95634],[-99.41261,19.95643],[-99.4127,19.95651],[-99.41279,19.95659],[-99.41288,19.95666],[-99.41298000000001,19.95675],[-99.41304,19.9568],[-99.41308999999998,19.95684],[-99.41321000000001,19.95693],[-99.41341999999999,19.95709],[-99.41369000000002,19.95723],[-99.41408000000001,19.95742],[-99.41454,19.95759],[-99.41495999999999,19.95772],[-99.41536999999998,19.95783],[-99.41658999999999,19.95816],[-99.41728000000001,19.95833],[-99.41844,19.95861],[-99.419,19.95878],[-99.41932,19.95889],[-99.41958999999999,19.95901],[-99.41972,19.95908],[-99.41996999999999,19.95924],[-99.42015000000001,19.95937],[-99.42047,19.95966],[-99.42101,19.96024],[-99.42162,19.96094],[-99.42198999999999,19.96139],[-99.42255,19.96208],[-99.42313999999999,19.96277],[-99.42349,19.96314],[-99.42368999999999,19.96336],[-99.42402,19.96366],[-99.42422999999999,19.96381],[-99.42464000000001,19.96409],[-99.42523,19.96445],[-99.42572,19.96475],[-99.42619000000002,19.96507],[-99.42662,19.96542],[-99.42674,19.96554],[-99.42684,19.96567],[-99.42711,19.96603],[-99.42728,19.96634],[-99.42744999999999,19.96668],[-99.42778,19.96748],[-99.42793,19.96784],[-99.42802,19.96802],[-99.42821000000001,19.9684],[-99.42841,19.96869],[-99.4286,19.96892],[-99.4288,19.96912],[-99.42927,19.96944],[-99.42944,19.96955],[-99.42979,19.96975],[-99.43023,19.96998],[-99.43101,19.97035],[-99.43203999999999,19.97093],[-99.43236999999999,19.97114],[-99.43397999999999,19.97222],[-99.43431000000001,19.97241],[-99.43467,19.97268],[-99.43497000000002,19.97295],[-99.43522,19.97322],[-99.43545,19.97356],[-99.43564000000002,19.9739],[-99.43577000000001,19.97422],[-99.43581000000002,19.97435],[-99.43591000000001,19.97479],[-99.43599,19.97529],[-99.43601,19.97554],[-99.43603000000002,19.97592],[-99.43609999999998,19.97661],[-99.43613000000001,19.97726],[-99.43619,19.97802],[-99.43630999999999,19.97873],[-99.43635999999999,19.97891],[-99.43644999999999,19.97911],[-99.43674,19.97974],[-99.43718,19.98067],[-99.43769,19.98175],[-99.43785,19.98209],[-99.43786,19.9821],[-99.43786,19.98211],[-99.43786,19.98212],[-99.43798999999999,19.9824],[-99.43815000000001,19.98266],[-99.43828000000001,19.98288],[-99.43862,19.98334],[-99.43877999999999,19.98354],[-99.43894,19.9837],[-99.43921,19.98395],[-99.43957,19.98423],[-99.43989000000001,19.98446],[-99.44046,19.98476],[-99.44073,19.98487],[-99.44098999999999,19.98497],[-99.44128000000001,19.98506],[-99.44158,19.98516],[-99.44182000000001,19.98524],[-99.44204999999998,19.9853],[-99.44226999999998,19.98536],[-99.44247,19.9854],[-99.44333,19.98558],[-99.44359000000002,19.98566],[-99.44363,19.98567],[-99.44386,19.98573],[-99.44531000000002,19.98614],[-99.4465,19.98645],[-99.44773000000001,19.98679],[-99.44803,19.98688],[-99.44893999999998,19.98711],[-99.44931,19.98721],[-99.45048999999999,19.98754],[-99.45115000000001,19.98769],[-99.452,19.98792],[-99.45321000000001,19.98825],[-99.45442,19.98857],[-99.45655000000001,19.98916],[-99.46109,19.99033],[-99.46389000000001,19.99107],[-99.46905000000001,19.99246],[-99.4712,19.99302],[-99.47299,19.99348],[-99.4734,19.99359],[-99.47358,19.99364],[-99.47359,19.99365],[-99.47378999999998,19.9937],[-99.47589999999998,19.99427],[-99.48253,19.99606],[-99.4836,19.99633],[-99.48550000000002,19.99682],[-99.48685999999999,19.99719],[-99.48839999999998,19.99773],[-99.4902,19.99863],[-99.49573999999998,20.00201],[-99.49662000000001,20.00257],[-99.49672,20.00262],[-99.49852,20.00373],[-99.50060000000001,20.00495],[-99.50228,20.00596],[-99.50242,20.00605],[-99.50564,20.00803],[-99.50821999999999,20.00962],[-99.50865,20.00987],[-99.50945000000002,20.01034],[-99.51582999999999,20.01424],[-99.51776,20.01542],[-99.51828999999999,20.01574],[-99.51890000000002,20.01611],[-99.51989,20.01672],[-99.52018,20.01689],[-99.5202,20.01691],[-99.52021000000001,20.01691],[-99.52046000000001,20.01706],[-99.52543,20.02022],[-99.52678,20.02104],[-99.52908999999998,20.02246],[-99.53317,20.02493],[-99.53417,20.02555],[-99.53503999999998,20.02602],[-99.53553000000001,20.02626],[-99.53601999999999,20.02646],[-99.53652,20.02666],[-99.53991000000002,20.02804],[-99.53997999999999,20.02807],[-99.54326,20.02934],[-99.55015,20.032],[-99.5572,20.0347],[-99.55834,20.03514],[-99.55947999999999,20.03557],[-99.55997000000002,20.03576],[-99.55998000000001,20.03577],[-99.56066,20.03603],[-99.5607,20.03605],[-99.56214,20.03659],[-99.56917,20.03932],[-99.57128,20.04013],[-99.57429999999999,20.04127],[-99.57623,20.04198],[-99.5775,20.04245],[-99.57821000000001,20.04275],[-99.57869,20.04293],[-99.58095,20.04386],[-99.58114000000001,20.04396],[-99.58174,20.04426],[-99.58215999999999,20.04456],[-99.58254,20.0449],[-99.5829,20.04528],[-99.58316999999998,20.04558],[-99.58325000000001,20.04567],[-99.58362,20.04608],[-99.58398,20.04649],[-99.58421999999999,20.04675],[-99.58437000000002,20.04693],[-99.58438999999999,20.04695],[-99.58453,20.0471],[-99.58469,20.04728],[-99.58503,20.04767],[-99.58537,20.04805],[-99.58570999999999,20.04843],[-99.58604,20.04881],[-99.58637999999999,20.04918],[-99.58671,20.04956],[-99.5868,20.04967],[-99.58695,20.04985],[-99.58704,20.04993],[-99.58737000000002,20.05031],[-99.5877,20.05069],[-99.58804000000002,20.05107],[-99.58805000000001,20.05108],[-99.58838000000002,20.05145],[-99.58872000000001,20.05184],[-99.58906,20.05221],[-99.58937999999999,20.05257],[-99.58960000000002,20.05282],[-99.58969,20.05293],[-99.59001000000001,20.05329],[-99.59033000000001,20.05364],[-99.59063999999999,20.054],[-99.59095000000001,20.05435],[-99.59126999999999,20.05471],[-99.59159,20.05508],[-99.59192,20.05546],[-99.59198000000001,20.05552],[-99.59202999999999,20.05558],[-99.59226,20.05583],[-99.59261000000001,20.05621],[-99.59278999999998,20.05639],[-99.59281,20.05641],[-99.59296999999999,20.05658],[-99.59333000000001,20.05697],[-99.59355999999998,20.05721],[-99.5937,20.05737],[-99.59407,20.0578],[-99.59438000000002,20.05814],[-99.59441,20.05818],[-99.59443,20.0582],[-99.59448999999999,20.05826],[-99.59457999999999,20.05837],[-99.59494999999998,20.05879],[-99.59532,20.0592],[-99.59569000000001,20.05961],[-99.59604,20.06001],[-99.59638,20.06039],[-99.5967,20.06074],[-99.59700000000001,20.06107],[-99.59732,20.06138],[-99.59765,20.06168],[-99.59772000000001,20.06173],[-99.59799,20.06201],[-99.59866999999998,20.06258],[-99.59926,20.06304],[-99.60050000000001,20.06407],[-99.60055,20.06411],[-99.60084999999999,20.06435],[-99.60114,20.06461],[-99.60142000000001,20.06489],[-99.60168,20.06519],[-99.60193,20.06552],[-99.60215,20.06587],[-99.60232000000002,20.06619],[-99.60248,20.06661],[-99.60259000000001,20.06698],[-99.60283000000001,20.0677],[-99.60294000000002,20.06807],[-99.60305,20.06836],[-99.60319,20.06866],[-99.60333000000001,20.06889],[-99.60347,20.06911],[-99.60366000000002,20.06933],[-99.60382,20.06951],[-99.60406999999998,20.06974],[-99.60434000000001,20.06995],[-99.60458,20.07012],[-99.60505000000002,20.07039],[-99.60597,20.07083],[-99.60706999999998,20.07136],[-99.60782,20.07171],[-99.60861999999999,20.0721],[-99.60921999999999,20.07239],[-99.60969,20.07264],[-99.61002000000001,20.07282],[-99.61029000000001,20.07299],[-99.61055999999999,20.0732],[-99.61088,20.07344],[-99.61263,20.07491],[-99.61342999999999,20.07557],[-99.61348,20.07561],[-99.61394,20.07599],[-99.61417000000002,20.07618],[-99.61418999999999,20.07619],[-99.61421,20.07621],[-99.61448,20.07643],[-99.61650000000002,20.07816],[-99.61735,20.07886],[-99.61835000000001,20.07969],[-99.61888,20.08014],[-99.61951999999998,20.08069],[-99.61993,20.08101],[-99.62054000000001,20.08141],[-99.62105,20.0817],[-99.62165,20.08192],[-99.62241,20.08217],[-99.62381000000001,20.08244],[-99.62423000000001,20.0825],[-99.62430000000001,20.08251],[-99.62466000000001,20.08258],[-99.62499,20.08264],[-99.62529999999998,20.08269],[-99.62559,20.08275],[-99.62589,20.08281],[-99.62601999999998,20.08283],[-99.62653,20.08291],[-99.62725,20.08303],[-99.62736,20.08305],[-99.62757999999998,20.08309],[-99.62788000000001,20.08314],[-99.62836,20.08322],[-99.62841,20.08323],[-99.62842999999999,20.08323],[-99.62845000000002,20.08323],[-99.6285,20.08323],[-99.62932000000001,20.08325],[-99.62958,20.08325],[-99.62989,20.08324],[-99.63014,20.08322],[-99.63042,20.0832],[-99.63237,20.08293],[-99.63556,20.08247],[-99.63640999999998,20.08235],[-99.63655,20.08232],[-99.63757000000001,20.08215],[-99.63868999999998,20.08199],[-99.63873,20.08198],[-99.63947,20.08187],[-99.64044,20.08171],[-99.64218999999999,20.08146],[-99.64241000000001,20.08145],[-99.64261000000001,20.08142],[-99.64355999999999,20.08129],[-99.64535999999998,20.08105],[-99.64584000000002,20.08097],[-99.64660000000001,20.08083],[-99.64801,20.08062],[-99.64877,20.08051],[-99.6491,20.08047],[-99.64916,20.08047],[-99.64959,20.08045],[-99.65006,20.08046],[-99.65036000000001,20.08047],[-99.65082,20.08048],[-99.65108000000001,20.08051],[-99.65122,20.08052],[-99.65228000000001,20.08066],[-99.65451,20.08118],[-99.65527,20.08138],[-99.65622000000001,20.08162],[-99.65846000000002,20.0822],[-99.66071,20.0828],[-99.66581000000001,20.08409],[-99.67213,20.08577],[-99.67494000000001,20.08652],[-99.67865999999998,20.08745],[-99.68044999999999,20.08793],[-99.68102999999999,20.08808],[-99.68143999999998,20.0882],[-99.68181999999999,20.08832],[-99.68222,20.08847],[-99.68260000000001,20.08864],[-99.68306,20.08886],[-99.6835,20.08909],[-99.68395,20.08936],[-99.68426000000001,20.08956],[-99.68486,20.08997],[-99.68531000000002,20.09032],[-99.68567,20.09058],[-99.68617999999999,20.09105],[-99.68635,20.09123],[-99.68664,20.09149],[-99.68696,20.09181],[-99.687,20.09185],[-99.68709999999999,20.09194],[-99.68711,20.09195],[-99.68721000000001,20.09204],[-99.68725000000002,20.09209],[-99.68729,20.09213],[-99.68762,20.09244],[-99.68795,20.09277],[-99.68829,20.09308],[-99.68863,20.09342],[-99.68898000000002,20.09375],[-99.68935000000001,20.0941],[-99.68971999999998,20.09445],[-99.69009,20.09481],[-99.69045,20.09516],[-99.69081999999999,20.09551],[-99.69119000000001,20.09586],[-99.69150000000001,20.09616],[-99.69156,20.09621],[-99.69192,20.09657],[-99.69229,20.09691],[-99.69265000000002,20.09726],[-99.69302,20.09761],[-99.69338999999998,20.09797],[-99.69376,20.09833],[-99.69413,20.09869],[-99.69494,20.0994],[-99.69643999999998,20.10156],[-99.69651,20.10166],[-99.69655,20.10172],[-99.69659,20.10178],[-99.69659999999999,20.1018],[-99.69676999999999,20.10205],[-99.69704000000002,20.10251],[-99.69781999999999,20.10357],[-99.6979,20.10368],[-99.69810000000001,20.10399],[-99.69849999999998,20.1046],[-99.69978,20.10633],[-99.7003,20.10686],[-99.70098999999999,20.10741],[-99.70146,20.10761],[-99.70242,20.10799],[-99.70740000000001,20.10993],[-99.70926,20.11072],[-99.70941999999999,20.1108],[-99.71046,20.11137],[-99.71099,20.11174],[-99.71176,20.11232],[-99.71279,20.11313],[-99.71420000000001,20.11423],[-99.71536999999999,20.11521],[-99.71626000000001,20.11592],[-99.71913000000001,20.1182],[-99.72187,20.1204],[-99.72203,20.12056],[-99.72257000000001,20.12111],[-99.72313,20.12199],[-99.72374000000001,20.1231],[-99.72442,20.12459],[-99.7246,20.12499],[-99.72560999999999,20.12723],[-99.72571000000002,20.12742],[-99.72602000000001,20.12811],[-99.72814,20.13296],[-99.73102,20.13958],[-99.73251000000001,20.14293],[-99.73305000000002,20.144],[-99.7333,20.14448],[-99.73365,20.14491],[-99.73395999999998,20.14528],[-99.73452,20.14587],[-99.73794,20.14949],[-99.73916,20.15081],[-99.73927999999999,20.15094],[-99.73939999999999,20.15108],[-99.74003999999999,20.15177],[-99.74032,20.15208],[-99.74129000000001,20.15309],[-99.74442999999999,20.15639],[-99.74451999999998,20.15648],[-99.74460999999999,20.15657],[-99.74512000000001,20.15711],[-99.74634000000002,20.15844],[-99.74760000000001,20.15979],[-99.75134,20.16383],[-99.75208000000001,20.16473],[-99.75481000000001,20.16789],[-99.75677,20.17036],[-99.76149,20.17594],[-99.76308,20.17791],[-99.76674000000001,20.18223],[-99.76795,20.18378],[-99.76852000000001,20.18444],[-99.76867,20.18462],[-99.76876,20.18473],[-99.76877,20.18474],[-99.7689,20.1849],[-99.76939,20.18547],[-99.77313,20.18993],[-99.77366000000001,20.19051],[-99.77378,20.19065],[-99.77379999999999,20.19068],[-99.77395,20.19086],[-99.77471,20.19179],[-99.77865,20.19648],[-99.78162,20.2],[-99.78182,20.20025],[-99.78185000000002,20.20029],[-99.78213,20.20064],[-99.78588000000001,20.20513],[-99.78683,20.20628],[-99.78743,20.20697],[-99.78749000000001,20.20702],[-99.78754000000001,20.20708],[-99.79244,20.21109],[-99.79362999999999,20.21207],[-99.79391,20.2123],[-99.79443999999999,20.21273],[-99.79449,20.21277],[-99.79818,20.21577],[-99.80394,20.22048],[-99.8044,20.22086],[-99.80534,20.22162],[-99.80914999999999,20.22474],[-99.80964,20.22515],[-99.81079,20.22608],[-99.81179,20.22691],[-99.81197,20.22705],[-99.81221000000001,20.22725],[-99.81797,20.23193],[-99.82113,20.23449],[-99.82123,20.23457],[-99.82125000000001,20.23459],[-99.82178999999999,20.23503],[-99.82483000000001,20.23751],[-99.82706,20.23933],[-99.82754,20.23972],[-99.82958000000001,20.24138],[-99.83071,20.24229],[-99.83646,20.24694],[-99.83648,20.24696],[-99.83681,20.24723],[-99.8374,20.2477],[-99.83744000000002,20.24774],[-99.84318,20.25237],[-99.84323999999999,20.25243],[-99.84867000000001,20.25689],[-99.84990000000001,20.2579],[-99.8527,20.2602],[-99.85657999999999,20.26338],[-99.85758,20.26402],[-99.85876,20.26442],[-99.85924,20.26459],[-99.86069999999999,20.26515],[-99.86126,20.26537],[-99.8616,20.26551],[-99.86660999999999,20.26739],[-99.8686,20.26815],[-99.87226,20.26952],[-99.87389,20.27014],[-99.87485000000001,20.27051],[-99.87567,20.27083],[-99.88274000000001,20.27351],[-99.88453,20.27419],[-99.88980000000001,20.27619],[-99.89687000000001,20.27888],[-99.89829,20.27942],[-99.90021,20.28015],[-99.90217,20.28111],[-99.90371,20.28199],[-99.90858000000002,20.28478],[-99.91022,20.28572],[-99.91586,20.28883],[-99.91679000000001,20.28934],[-99.91683999999999,20.28937],[-99.91725999999999,20.28961],[-99.91763,20.28982],[-99.91770000000001,20.28986],[-99.91813999999999,20.29012],[-99.91858000000002,20.29038],[-99.91898999999998,20.29063],[-99.91936999999999,20.29085],[-99.91973,20.29107],[-99.92008999999999,20.29128],[-99.92045,20.29149],[-99.92082000000001,20.29171],[-99.92119,20.29193],[-99.92158000000002,20.29216],[-99.92196,20.29239],[-99.92234000000001,20.29261],[-99.92270999999998,20.29283],[-99.92307,20.29304],[-99.92345,20.29326],[-99.9238,20.29347],[-99.92381000000002,20.29347],[-99.92420000000001,20.29368],[-99.92456,20.29387],[-99.92489000000001,20.29405],[-99.92715000000001,20.29523],[-99.92863,20.296],[-99.92965999999998,20.29664],[-99.93026999999998,20.29699],[-99.93037000000001,20.29706],[-99.93042,20.29708],[-99.93057,20.29716],[-99.93073,20.29725],[-99.93091,20.29735],[-99.93111,20.29746],[-99.93131,20.29758],[-99.93153,20.29771],[-99.93176000000001,20.29785],[-99.932,20.29799],[-99.93226000000001,20.29816],[-99.9324,20.29825],[-99.93253,20.29833],[-99.93282000000001,20.29853],[-99.93282000000001,20.29854],[-99.93282999999998,20.29854],[-99.93294,20.29864],[-99.93310000000001,20.29876],[-99.93333,20.29898],[-99.93359999999998,20.29934],[-99.93380999999999,20.29963],[-99.93395,20.29985],[-99.93413,20.30018],[-99.93414,20.30029],[-99.93414999999999,20.30035],[-99.93424,20.30062],[-99.93429999999999,20.30084],[-99.9344,20.30126],[-99.9345,20.3017],[-99.93461000000001,20.30215],[-99.93471000000001,20.3026],[-99.93481,20.30303],[-99.9349,20.30345],[-99.93496,20.30388],[-99.93496,20.30432],[-99.93492000000002,20.30478],[-99.93481999999999,20.30525],[-99.93473,20.30555],[-99.93470000000002,20.30577],[-99.93468,20.30594],[-99.93458,20.30627],[-99.93445,20.30676],[-99.93431,20.30724],[-99.93418,20.30772],[-99.93404000000001,20.30819],[-99.93389999999999,20.30855],[-99.93387000000001,20.30863],[-99.93366,20.30901],[-99.93342999999999,20.3094],[-99.93335999999999,20.30953],[-99.93327000000001,20.30968],[-99.93311,20.30998],[-99.93286999999999,20.31044],[-99.93262,20.31091],[-99.93236999999999,20.31138],[-99.93218,20.31174],[-99.93212,20.31186],[-99.93189,20.31231],[-99.93188000000001,20.31233],[-99.93183000000001,20.31241],[-99.93162,20.3128],[-99.9314,20.31325],[-99.93133,20.31339],[-99.93117,20.3137],[-99.93099000000001,20.31413],[-99.93088,20.31461],[-99.93076999999998,20.31516],[-99.93075000000002,20.31567],[-99.93079,20.3162],[-99.93082000000001,20.31658],[-99.93084,20.31675],[-99.93102,20.31731],[-99.93189,20.31928],[-99.93237999999998,20.32038],[-99.93261,20.32094],[-99.93328,20.32249],[-99.93344,20.32288],[-99.93402,20.32415],[-99.93438999999998,20.32501],[-99.93447999999999,20.32519],[-99.93467,20.32562],[-99.93488000000001,20.32606],[-99.93493000000001,20.32617],[-99.93515999999998,20.32672],[-99.93517,20.32673],[-99.93531999999999,20.32708],[-99.93552,20.32754],[-99.93565999999998,20.32785],[-99.93598000000002,20.32853],[-99.93610000000001,20.32884],[-99.93662000000001,20.3302],[-99.93687000000001,20.3308],[-99.93715000000002,20.33144],[-99.93733,20.33178],[-99.93742,20.33193],[-99.93783999999999,20.33254],[-99.93846000000001,20.33333],[-99.93926000000002,20.33427],[-99.93989999999999,20.33504],[-99.94049000000001,20.33576],[-99.94062,20.33592],[-99.94078,20.33611],[-99.94091,20.33627],[-99.94113,20.33653],[-99.94150000000001,20.33704],[-99.9418,20.33741],[-99.9419,20.33754],[-99.94215999999999,20.33787],[-99.94275999999999,20.33862],[-99.94368,20.33981],[-99.94405999999998,20.34031],[-99.94429,20.34062],[-99.94464000000001,20.34114],[-99.94506,20.34195],[-99.94535999999999,20.34256],[-99.94560000000001,20.34304],[-99.94575,20.34335],[-99.94582999999999,20.34347],[-99.94606,20.34384],[-99.94628,20.34416],[-99.94704999999999,20.34501],[-99.94760999999998,20.34565],[-99.94813000000001,20.34625],[-99.94840000000001,20.3465],[-99.94865999999999,20.34676],[-99.95157,20.34945],[-99.95308,20.35087],[-99.95616000000001,20.35373],[-99.95657,20.35411],[-99.95742,20.35487],[-99.95771000000002,20.35514],[-99.96097,20.3581],[-99.96118,20.35829],[-99.96218,20.3593],[-99.96228000000001,20.35938],[-99.96266000000001,20.35973],[-99.96339999999998,20.36039],[-99.96346,20.36044],[-99.96369,20.36066],[-99.96402999999999,20.36092],[-99.96439000000001,20.36118],[-99.96444999999999,20.36122],[-99.96506000000001,20.36158],[-99.96558,20.36183],[-99.96592,20.36197],[-99.96632,20.36212],[-99.96662000000001,20.36221],[-99.96680000000001,20.36226],[-99.96699,20.36231],[-99.96729999999999,20.36238],[-99.96809,20.3625],[-99.96926000000001,20.36263],[-99.97159000000001,20.36281],[-99.97198,20.36285],[-99.97245000000001,20.36294],[-99.97272,20.36301],[-99.97301,20.36312],[-99.97344,20.3633],[-99.97418,20.36371],[-99.97524,20.36444],[-99.97825,20.36653],[-99.97972000000002,20.36752],[-99.97992000000001,20.36766],[-99.98005000000002,20.36775],[-99.98052,20.36807],[-99.98133,20.36842],[-99.98166000000001,20.36859],[-99.98182,20.36866],[-99.98204,20.36876],[-99.98209,20.36878],[-99.98356999999999,20.36944],[-99.98462000000001,20.36986],[-99.98477,20.36992],[-99.98495000000001,20.37],[-99.98665,20.37068],[-99.98669,20.3707],[-99.98672000000002,20.37071],[-99.98687,20.37077],[-99.98690999999998,20.37079],[-99.98711999999999,20.37088],[-99.98721000000001,20.37091],[-99.98728999999999,20.37094],[-99.98887000000001,20.37159],[-99.98897,20.37164],[-99.99005,20.37211],[-99.99034000000002,20.37222],[-99.99088,20.37245],[-99.99284000000002,20.37326],[-99.99509999999999,20.37416],[-99.99521,20.37421],[-99.99594999999999,20.37452],[-99.99611999999999,20.37459],[-99.99645999999999,20.37474],[-99.99738000000001,20.37512],[-99.9975,20.37516],[-99.99762999999999,20.37521],[-99.99771,20.37525],[-99.99776,20.37527],[-99.99896000000001,20.37575],[-99.99908000000001,20.37579],[-99.99917000000002,20.37583],[-99.99932,20.37589],[-99.99939000000001,20.37592],[-99.99947,20.37596],[-99.99966000000001,20.37604],[-99.99984000000002,20.37612],[-99.99990999999999,20.37615],[-100.00085,20.37653],[-100.00109,20.37661],[-100.00148,20.37671],[-100.00173,20.37674],[-100.00195,20.37677],[-100.00246,20.37679],[-100.00287,20.37677],[-100.0044,20.37666],[-100.00542,20.37662],[-100.00546,20.37662],[-100.00605,20.37659],[-100.00629,20.37661],[-100.0066,20.37664],[-100.00689,20.37669],[-100.0071,20.37674],[-100.00746,20.37689],[-100.00765,20.37697],[-100.00839,20.3774],[-100.00904,20.37786],[-100.01012,20.37864],[-100.01084,20.37914],[-100.01214,20.38001],[-100.01257,20.38038],[-100.01289,20.38071],[-100.01291,20.38073],[-100.01293,20.38075],[-100.01294,20.38075],[-100.01294,20.38076],[-100.01317,20.38105],[-100.01321,20.38108],[-100.0138,20.38187],[-100.01461,20.383],[-100.01594,20.38482],[-100.01637,20.38546],[-100.01666,20.38585],[-100.01695,20.38627],[-100.01733,20.38678],[-100.01735,20.38681],[-100.01744,20.38695],[-100.01792,20.38762],[-100.0188,20.38879],[-100.01968,20.38998],[-100.02084,20.39153],[-100.02126,20.39222],[-100.02135,20.39242],[-100.02145,20.39264],[-100.02163,20.39328],[-100.02197,20.39476],[-100.02207,20.39517],[-100.02208,20.39519],[-100.02216,20.39555],[-100.02235,20.39604],[-100.02246,20.39628],[-100.02276,20.39681],[-100.02296,20.3971],[-100.0231,20.39727],[-100.02331,20.39751],[-100.02392,20.39807],[-100.02402,20.39817],[-100.02456,20.39864],[-100.0246,20.39868],[-100.02533,20.39933],[-100.02647,20.40036],[-100.02755,20.40133],[-100.02763,20.4014],[-100.02776,20.40153],[-100.02799,20.40174],[-100.02819,20.40191],[-100.02906,20.40268],[-100.02927,20.40289],[-100.02964,20.40324],[-100.02987,20.40345],[-100.03016,20.40372],[-100.03018,20.40374],[-100.0302,20.40376],[-100.03024,20.4038],[-100.03118,20.40462],[-100.03166,20.40504],[-100.03229,20.40561],[-100.03266,20.40594],[-100.03431,20.40746],[-100.03433,20.40748],[-100.03452,20.40765],[-100.03655,20.4095],[-100.0387,20.41143],[-100.03977,20.4124],[-100.04093,20.41345],[-100.04257,20.41495],[-100.0431,20.41541],[-100.04447,20.41663],[-100.04526,20.41735],[-100.04795,20.41979],[-100.04995,20.42163],[-100.055,20.42619],[-100.05544,20.42659],[-100.05582,20.42693],[-100.05639,20.42738],[-100.05642,20.42741],[-100.05723,20.42804],[-100.05759,20.42832],[-100.06014,20.43029],[-100.06023,20.43035],[-100.06097,20.43086],[-100.06124,20.43104],[-100.06237,20.43178],[-100.06445,20.43317],[-100.06469,20.43336],[-100.06508,20.43368],[-100.06621,20.43471],[-100.0669,20.43538],[-100.06712,20.43564],[-100.06731,20.4359],[-100.06753,20.43626],[-100.06769,20.43655],[-100.06848,20.43788],[-100.0688,20.43837],[-100.06898,20.43863],[-100.06925,20.439],[-100.06965,20.43956],[-100.06977,20.43972],[-100.06981,20.43978],[-100.06998,20.44005],[-100.07024,20.44038],[-100.07032,20.44048],[-100.07048,20.44066],[-100.07104,20.44112],[-100.07149,20.44148],[-100.0715,20.44149],[-100.07152,20.4415],[-100.07157,20.44154],[-100.07161,20.44158],[-100.07207,20.44196],[-100.07293,20.44269],[-100.07339,20.44306],[-100.07374,20.44335],[-100.0769,20.44585],[-100.0782,20.4469],[-100.07828,20.44697],[-100.07973,20.44813],[-100.08013,20.44844],[-100.08287,20.45064],[-100.08812,20.45483],[-100.08846,20.45511],[-100.09427,20.45976],[-100.10006,20.46441],[-100.10215,20.46606],[-100.10323,20.46709],[-100.10429,20.46857],[-100.10443,20.46878],[-100.10466,20.46913],[-100.10472,20.46921],[-100.10505,20.46973],[-100.10514,20.46987],[-100.10538,20.47017],[-100.10563,20.47052],[-100.10574,20.47067],[-100.10577,20.47071],[-100.10579,20.47073],[-100.10579,20.47074],[-100.10587,20.47085],[-100.10616,20.47123],[-100.10703,20.47237],[-100.10735,20.47281],[-100.10761,20.47319],[-100.10893,20.47507],[-100.1091,20.47531],[-100.11017,20.47678],[-100.1111,20.47807],[-100.11178,20.47904],[-100.11185,20.47914],[-100.11191,20.47922],[-100.11196,20.47931],[-100.11202,20.47939],[-100.11259,20.48016],[-100.11339,20.48124],[-100.11414,20.48223],[-100.11476,20.48293],[-100.11558,20.48361],[-100.11683,20.48454],[-100.11985,20.48694],[-100.12081,20.4877],[-100.1215,20.48824],[-100.12157,20.4883],[-100.1225,20.48904],[-100.12833,20.49366],[-100.13177,20.49639],[-100.1342,20.49823],[-100.13697,20.50041],[-100.13707,20.50049],[-100.13711,20.50052],[-100.13712,20.50053],[-100.13714,20.50055],[-100.13717,20.50057],[-100.13731,20.50068],[-100.13885,20.50191],[-100.13898,20.50201],[-100.14148,20.50395],[-100.14234,20.50462],[-100.14256,20.50479],[-100.14297,20.50512],[-100.14328,20.50539],[-100.1435,20.50556],[-100.14377,20.50579],[-100.14409,20.50605],[-100.14427,20.50616],[-100.1443,20.50618],[-100.14452,20.50632],[-100.1448,20.50652],[-100.14574,20.50708],[-100.14667,20.50752],[-100.14752,20.50783],[-100.14862,20.50826],[-100.15118,20.5094],[-100.15135,20.50947],[-100.15169,20.50961],[-100.15213,20.50979],[-100.15297,20.51014],[-100.15329,20.51027],[-100.15332,20.51029],[-100.15333,20.51029],[-100.15377,20.51048],[-100.15513,20.51104],[-100.15618,20.51153],[-100.15678,20.51189],[-100.15735,20.51229],[-100.15799,20.51281],[-100.15839,20.51317],[-100.15987,20.51443],[-100.16054,20.51502],[-100.16178,20.51607],[-100.16234,20.51654],[-100.16265,20.51678],[-100.1635,20.5174],[-100.16465,20.51823],[-100.16759,20.5204],[-100.16773,20.5205],[-100.16817,20.52082],[-100.16861,20.52112],[-100.16904,20.52144],[-100.16947,20.52175],[-100.16966,20.52189],[-100.17037,20.52241],[-100.17083,20.52274],[-100.17096,20.52283],[-100.17104,20.52289],[-100.17129,20.52307],[-100.17166,20.52335],[-100.172,20.52361],[-100.17248,20.52394],[-100.17285,20.52418],[-100.17338,20.52454],[-100.17393,20.5249],[-100.17448,20.52527],[-100.17504,20.52565],[-100.1756,20.52603],[-100.17614,20.5264],[-100.17669,20.52677],[-100.17725,20.52715],[-100.17781,20.52753],[-100.17837,20.52791],[-100.17894,20.52829],[-100.17922,20.52849],[-100.17944,20.52863],[-100.17988,20.52892],[-100.18033,20.52922],[-100.18077,20.52951],[-100.18121,20.5298],[-100.18164,20.53009],[-100.18209,20.53039],[-100.18254,20.53068],[-100.18299,20.53098],[-100.18342,20.53127],[-100.18385,20.53155],[-100.18428,20.53184],[-100.18471,20.53212],[-100.18516,20.53242],[-100.18546,20.53262],[-100.1856,20.53272],[-100.18602,20.533],[-100.18645,20.53329],[-100.18687,20.53358],[-100.18728,20.53386],[-100.18745,20.53397],[-100.18772,20.53415],[-100.18817,20.53445],[-100.18863,20.53475],[-100.18909,20.53505],[-100.18953,20.53535],[-100.18961,20.5354],[-100.18998,20.53564],[-100.19017,20.53577],[-100.19044,20.53594],[-100.19072,20.53612],[-100.19077,20.53616],[-100.19092,20.53625],[-100.19124,20.53646],[-100.19148,20.53663],[-100.19162,20.53671],[-100.19213,20.53705],[-100.19263,20.53738],[-100.19312,20.53771],[-100.19343,20.53791],[-100.19359,20.53802],[-100.19401,20.5383],[-100.19443,20.53857],[-100.19482,20.53883],[-100.19521,20.53909],[-100.1956,20.53935],[-100.196,20.53962],[-100.1964,20.53988],[-100.1968,20.54015],[-100.19719,20.54041],[-100.19758,20.54067],[-100.19797,20.54092],[-100.19836,20.54118],[-100.19876,20.54145],[-100.19917,20.54171],[-100.19959,20.54198],[-100.20001,20.54225],[-100.20042,20.54253],[-100.20084,20.54281],[-100.20128,20.5431],[-100.20173,20.5434],[-100.20218,20.5437],[-100.20264,20.54401],[-100.20311,20.54432],[-100.20348,20.54457],[-100.20357,20.54463],[-100.20405,20.54495],[-100.20413,20.545],[-100.20448,20.54524],[-100.20451,20.54526],[-100.20474,20.54541],[-100.20491,20.54554],[-100.20505,20.54562],[-100.20538,20.54585],[-100.20589,20.54619],[-100.20639,20.54652],[-100.20689,20.54686],[-100.2074,20.54718],[-100.20779,20.54744],[-100.2079,20.54751],[-100.20838,20.54783],[-100.20885,20.54814],[-100.20932,20.54847],[-100.20979,20.54877],[-100.21026,20.54908],[-100.21075,20.5494],[-100.21123,20.54972],[-100.21171,20.55004],[-100.21218,20.55036],[-100.21264,20.55067],[-100.2131,20.55097],[-100.21354,20.55126],[-100.21397,20.55155],[-100.21402,20.55158],[-100.21439,20.55183],[-100.21479,20.5521],[-100.21844,20.55454],[-100.21957,20.55528],[-100.2201,20.55563],[-100.22267,20.55732],[-100.2231,20.55761],[-100.22361,20.55795],[-100.22406,20.55823],[-100.22457,20.55854],[-100.22509,20.55883],[-100.22519,20.55887],[-100.22521,20.55888],[-100.2253,20.55893],[-100.22532,20.55894],[-100.22546,20.559],[-100.22603,20.55921],[-100.22655,20.55939],[-100.22687,20.5595],[-100.22688,20.55953],[-100.22689,20.55954],[-100.2269,20.55955],[-100.22708,20.55963],[-100.22742,20.55976],[-100.22821,20.56002],[-100.22854,20.56021],[-100.22865,20.56031],[-100.22881,20.56047],[-100.22893,20.56061],[-100.22921,20.561],[-100.22947,20.56146],[-100.22982,20.56214],[-100.23023,20.56293],[-100.23046,20.56337],[-100.23067,20.56373],[-100.2308,20.56398],[-100.23255,20.56733],[-100.23339,20.56888],[-100.23528,20.57252],[-100.23594,20.57379],[-100.23641,20.57472],[-100.23718,20.57619],[-100.2393,20.58018],[-100.23987,20.58129],[-100.24102,20.58334],[-100.24159,20.58424],[-100.24262,20.58569],[-100.24315,20.58638],[-100.24369,20.5871],[-100.24589,20.58996],[-100.24756,20.59216],[-100.24759,20.59221],[-100.24764,20.59227],[-100.24769,20.59234],[-100.24783,20.59252],[-100.24801,20.59275],[-100.25228,20.59833],[-100.25671,20.60413],[-100.26004,20.60847],[-100.26074,20.60941],[-100.26137,20.61023],[-100.2614,20.61028],[-100.26164,20.61059],[-100.2629,20.61223],[-100.26336,20.61286],[-100.26424,20.61415],[-100.26502,20.61533],[-100.26631,20.6173],[-100.26644,20.6175],[-100.2692,20.6217],[-100.26948,20.62212],[-100.26984,20.62266],[-100.2702,20.6232],[-100.27034,20.6234],[-100.27123,20.62473],[-100.27145,20.62507],[-100.27334,20.62792],[-100.27344,20.62808],[-100.27367,20.62845],[-100.27378,20.62861],[-100.27389,20.62877],[-100.27396,20.62889],[-100.27404,20.62901],[-100.27422,20.62929],[-100.27506,20.63058],[-100.27561,20.63139],[-100.27585,20.63176],[-100.27598,20.63195],[-100.2761,20.63213],[-100.27636,20.63252],[-100.27864,20.63603],[-100.2788,20.63626],[-100.27896,20.6365],[-100.27937,20.63713],[-100.27965,20.63755],[-100.28032,20.63855],[-100.28076,20.6392],[-100.28085,20.63933],[-100.28187,20.64074],[-100.2824,20.64147],[-100.28316,20.6425],[-100.28748,20.6484],[-100.29029,20.65226],[-100.2918,20.6543],[-100.29205,20.65465],[-100.29249,20.65525],[-100.2931,20.65609],[-100.29337,20.65646],[-100.29496,20.65862],[-100.29574,20.65971],[-100.29612,20.66022],[-100.29624,20.66038],[-100.29659,20.66088],[-100.29709,20.66154],[-100.29885,20.66396],[-100.29975,20.66525],[-100.30439,20.67225],[-100.30495,20.67307],[-100.30544,20.67378],[-100.30545,20.6738],[-100.30611,20.67483],[-100.30624,20.67505],[-100.30684,20.67595],[-100.30766,20.67718],[-100.30816,20.67794],[-100.30838,20.67827],[-100.30875,20.67881],[-100.309,20.67916],[-100.30914,20.67935],[-100.30928,20.67952],[-100.30956,20.67983],[-100.30971,20.68001],[-100.30991,20.68023],[-100.31014,20.68046],[-100.3104,20.6807],[-100.31072,20.68097],[-100.31112,20.68127],[-100.31168,20.68167],[-100.31225,20.68203],[-100.31246,20.68214],[-100.31287,20.68237],[-100.31385,20.68289],[-100.31532,20.68365],[-100.31582,20.68392],[-100.3169,20.68451],[-100.3179,20.68505],[-100.31907,20.68568],[-100.32235,20.68744],[-100.32245,20.68749],[-100.32334,20.68797],[-100.32448,20.6886],[-100.32483,20.68878],[-100.32621,20.68961],[-100.32654,20.68983],[-100.32685,20.69004],[-100.32715,20.69025],[-100.32753,20.69054],[-100.32871,20.69152],[-100.32984,20.69258],[-100.33034,20.69307],[-100.33399,20.69664],[-100.3354,20.698],[-100.33591,20.69849],[-100.33746,20.70001],[-100.339,20.7015],[-100.34162,20.70393],[-100.34213,20.70437],[-100.34261,20.70478],[-100.34298,20.7051],[-100.34306,20.70517],[-100.34331,20.70535],[-100.34451,20.70616],[-100.34647,20.70753],[-100.34975,20.70986],[-100.35188,20.71138],[-100.35317,20.71228],[-100.35398,20.71283],[-100.3541,20.71293],[-100.35504,20.71359],[-100.35588,20.71417],[-100.35674,20.71477],[-100.35714,20.71505],[-100.35717,20.71508],[-100.35719,20.71509],[-100.35753,20.71533],[-100.35869,20.71615],[-100.35962,20.71681],[-100.36018,20.7172],[-100.36084,20.71766],[-100.36196,20.71846],[-100.36291,20.71914],[-100.36374,20.71974],[-100.36434,20.72021],[-100.36509,20.72086],[-100.36536,20.7211],[-100.3656,20.72133],[-100.36618,20.7219],[-100.3675,20.72329],[-100.36761,20.72341],[-100.3688,20.72469],[-100.36924,20.72517],[-100.36991,20.7259],[-100.3706,20.72664],[-100.3709,20.72695],[-100.37133,20.72741],[-100.37189,20.728],[-100.37254,20.7287],[-100.37305,20.72924],[-100.37337,20.72959],[-100.3736,20.72983],[-100.37488,20.73118],[-100.37576,20.73212],[-100.37604,20.73241],[-100.37631,20.7327],[-100.37763,20.73408],[-100.37769,20.73415],[-100.37776,20.73422],[-100.37841,20.73493],[-100.37873,20.73526],[-100.37897,20.73552],[-100.37942,20.73604],[-100.37987,20.73657],[-100.38028,20.73709],[-100.38087,20.7379],[-100.38113,20.73829],[-100.38136,20.73867],[-100.38149,20.73888],[-100.38163,20.73913],[-100.38173,20.73929],[-100.38203,20.73983],[-100.3821,20.73995],[-100.38254,20.74075],[-100.38302,20.7416],[-100.38343,20.74233],[-100.38443,20.74407],[-100.38446,20.74412],[-100.38469,20.74451],[-100.38493,20.74493],[-100.38518,20.74537],[-100.3855,20.74593],[-100.38602,20.7468],[-100.38636,20.74742],[-100.3869,20.74838],[-100.38735,20.74922],[-100.3878,20.74998],[-100.38808,20.75047],[-100.38835,20.75095],[-100.38886,20.75184],[-100.38934,20.75267],[-100.38982,20.7535],[-100.39037,20.75442],[-100.39048,20.7546],[-100.39076,20.75508],[-100.3911,20.75555],[-100.39171,20.75635],[-100.39195,20.75666],[-100.3922,20.75697],[-100.3927,20.75754],[-100.39304,20.75791],[-100.39445,20.75942],[-100.39537,20.76038],[-100.39652,20.76159],[-100.39724,20.76235],[-100.39785,20.763],[-100.39954,20.76477],[-100.40011,20.76537],[-100.40053,20.7658],[-100.4022,20.76755],[-100.40295,20.76831],[-100.40306,20.76843],[-100.40312,20.76848],[-100.40312,20.76849],[-100.40462,20.77006],[-100.40523,20.77068],[-100.40622,20.77169],[-100.40758,20.7731],[-100.40874,20.77431],[-100.40879,20.77437],[-100.41002,20.77561],[-100.4104,20.77599],[-100.41073,20.77632],[-100.41082,20.7764],[-100.41251,20.77809],[-100.41354,20.77912],[-100.41397,20.77956],[-100.41435,20.77995],[-100.41612,20.78167],[-100.41661,20.78215],[-100.41678,20.78231],[-100.41737,20.78289],[-100.41859,20.78416],[-100.41958,20.78513],[-100.41993,20.78548],[-100.42057,20.78613],[-100.42072,20.78627],[-100.42085,20.7864],[-100.42167,20.78724],[-100.42414,20.78975],[-100.42603,20.79195],[-100.42659,20.7927],[-100.4271,20.79341],[-100.42882,20.79589],[-100.43075,20.7987],[-100.43245,20.80121],[-100.433,20.80202],[-100.43496,20.80466],[-100.43682,20.80743],[-100.43736,20.80819],[-100.43808,20.80923],[-100.43826,20.80946],[-100.43854,20.80977],[-100.43925,20.81059],[-100.4398,20.81118],[-100.44012,20.81149],[-100.44044,20.81181],[-100.4407,20.81204],[-100.44112,20.81242],[-100.44227,20.81338],[-100.44237,20.81346],[-100.44241,20.81349],[-100.44245,20.81352],[-100.44263,20.81367],[-100.44272,20.81375],[-100.4428,20.81382],[-100.44295,20.81396],[-100.4431,20.81408],[-100.44347,20.81438],[-100.4437,20.81456],[-100.44407,20.81481],[-100.44447,20.81504],[-100.44472,20.81517],[-100.44547,20.81553],[-100.44555,20.81557],[-100.44572,20.81565],[-100.44642,20.81605],[-100.44651,20.81621],[-100.44663,20.81632],[-100.4468,20.81652],[-100.44688,20.81661],[-100.44698,20.81675],[-100.44712,20.81699],[-100.4473,20.8174],[-100.4474,20.81775],[-100.44757,20.81841],[-100.44766,20.81873],[-100.44769,20.81893],[-100.44769,20.81908],[-100.44768,20.81925],[-100.44767,20.81942],[-100.44764,20.81962],[-100.44762,20.81977],[-100.44766,20.81995],[-100.44762,20.82003],[-100.44759,20.82015],[-100.44755,20.8203],[-100.44752,20.82041],[-100.44748,20.82054],[-100.44743,20.82064],[-100.4474,20.82071],[-100.44738,20.82075],[-100.44683,20.82183],[-100.44681,20.82188],[-100.44657,20.82214],[-100.4465,20.82224],[-100.44634,20.82258],[-100.44622,20.82285],[-100.44602,20.82326],[-100.44592,20.82346],[-100.44588,20.82355],[-100.44584,20.82361],[-100.44581,20.82363],[-100.44578,20.82365],[-100.44575,20.82366],[-100.44572,20.82366],[-100.44568,20.82366],[-100.44566,20.82365],[-100.44564,20.82365],[-100.44559,20.82354],[-100.44556,20.82348],[-100.44553,20.82345],[-100.44551,20.82342],[-100.44546,20.82338],[-100.44544,20.82336],[-100.44533,20.8233],[-100.44531,20.82329],[-100.44523,20.82324],[-100.44504,20.82313],[-100.44502,20.82312],[-100.44471,20.82296],[-100.4443,20.82274],[-100.44398,20.82261],[-100.44331,20.82238],[-100.44297,20.82225],[-100.44297,20.82224],[-100.44297,20.82222],[-100.44297,20.82221],[-100.44296,20.8222],[-100.44296,20.82219],[-100.44295,20.82218],[-100.44295,20.82217],[-100.44294,20.82215],[-100.44293,20.82214],[-100.44292,20.82213],[-100.44291,20.82212],[-100.4429,20.82212],[-100.44289,20.82211],[-100.44288,20.8221],[-100.44287,20.8221],[-100.44286,20.82209],[-100.44285,20.82209],[-100.44283,20.82208],[-100.44282,20.82208],[-100.44281,20.82208],[-100.44279,20.82208],[-100.44278,20.82208],[-100.44277,20.82208],[-100.44275,20.82208],[-100.44274,20.82209],[-100.44273,20.82209]]}
}
]}