{"type":"FeatureCollection","crs" : {
    "type" : "name",
    "properties" : {
      "name" : "urn:ogc:def:crs:EPSG::4326"
    }
  },
"features":[
{
	"type":"Feature","id":"0", "properties": {
		"name":"TecnoParque, Santa Barbara, Azcapotzalco, CDMX"
	},
	"geometry":{"type": "Point", "coordinates":[-99.1784766,19.503963]}
},{
	"type":"Feature","id":"1", "properties": {
		"name":"Parque Industrial Queretaro, Querétaro"
	},
	"geometry":{"type": "Point", "coordinates":[-100.4427654,20.8222371]}
}
]}