{"type":"FeatureCollection","crs" : {
    "type" : "name",
    "properties" : {
      "name" : "urn:ogc:def:crs:EPSG::4326"
    }
  },
"features":[
{
	"type":"Feature","id":"0", "properties": {
		"name":"Parque Industrial Queretaro, Querétaro"
	},
	"geometry":{"type": "Point", "coordinates":[-100.4427654,20.8222371]}
},{
	"type":"Feature","id":"1", "properties": {
		"name":"Finsa, Ciudad de México, CDMX"
	},
	"geometry":{"type": "Point", "coordinates":[-99.05503570000001,19.3688332]}
}
]}