{"type":"FeatureCollection","crs" : {
    "type" : "name",
    "properties" : {
      "name" : "urn:ogc:def:crs:EPSG::4326"
    }
  },
"features":[
{
	"type":"Feature","id":"0", "properties": {
		"distance":	249648.4,
		"duration":	12403.964998779367,
		"summary":	"207min, 249.65km",
		"name":"Carr Toluca - México 63, Mina Vieja, 05700 Ciudad de México, CDMX - Parque Industrial Queretaro, Carretera Queretaro - San Luis Potosí Km.28.5, Parque Industrial Queretaro, 76220 Santiago de Querétaro, Qro."
	},
	"geometry":{"type": "LineString", "coordinates":[[-99.31684,19.32787],[-99.31668000000001,19.3285],[-99.31663,19.32873],[-99.31661,19.32889],[-99.31661,19.32899],[-99.31661,19.32914],[-99.31664000000002,19.32944],[-99.31665000000001,19.32964],[-99.31658,19.32974],[-99.31656,19.32982],[-99.31653,19.32993],[-99.31648000000001,19.33005],[-99.31643000000001,19.33016],[-99.31636999999999,19.33026],[-99.31626000000001,19.33044],[-99.31611,19.33066],[-99.31603999999999,19.33076],[-99.31598000000001,19.33082],[-99.3159,19.3309],[-99.31583000000001,19.33095],[-99.31577,19.33099],[-99.31568,19.33102],[-99.3156,19.33104],[-99.31547000000002,19.33106],[-99.31527,19.33115],[-99.31521000000001,19.33119],[-99.31509000000001,19.33126],[-99.31504000000001,19.3313],[-99.31498999999998,19.33135],[-99.31493,19.33142],[-99.31473,19.33168],[-99.31441,19.33204],[-99.31395999999999,19.33255],[-99.31375999999999,19.33281],[-99.31357,19.33306],[-99.31345,19.33324],[-99.31334,19.3334],[-99.31327,19.33349],[-99.31305999999999,19.33372],[-99.31256999999999,19.33429],[-99.3124,19.3345],[-99.31211,19.3349],[-99.31198999999998,19.33511],[-99.31185000000001,19.33538],[-99.31180000000001,19.33548],[-99.31175000000002,19.33558],[-99.31167000000001,19.33578],[-99.31162999999999,19.33591],[-99.31158000000002,19.33608],[-99.31138,19.33754],[-99.31128,19.33811],[-99.31120000000001,19.33854],[-99.31113000000001,19.33905],[-99.31113000000001,19.33926],[-99.31108999999999,19.33943],[-99.31104999999999,19.33959],[-99.31103000000002,19.33969],[-99.31097,19.33984],[-99.31094,19.33991],[-99.31087000000001,19.34007],[-99.3108,19.34019],[-99.31074,19.3403],[-99.31067,19.3404],[-99.31058999999999,19.34052],[-99.31041000000001,19.34074],[-99.3103,19.34085],[-99.31014000000002,19.341],[-99.31,19.34111],[-99.30985,19.34122],[-99.30974000000001,19.34128],[-99.30967,19.34132],[-99.30938999999999,19.34146],[-99.30914000000001,19.34157],[-99.30892000000002,19.34168],[-99.30879,19.34175],[-99.30871999999999,19.34179],[-99.30867000000001,19.34182],[-99.30861,19.34187],[-99.30855,19.34191],[-99.3085,19.34196],[-99.30844999999999,19.342],[-99.30837000000001,19.34209],[-99.30831999999998,19.34215],[-99.30826999999998,19.34222],[-99.30822000000001,19.3423],[-99.30819,19.34236],[-99.30813000000001,19.34248],[-99.30809999999998,19.3426],[-99.30808000000002,19.34265],[-99.30807,19.3427],[-99.30804999999999,19.34277],[-99.30804000000001,19.34282],[-99.30803000000002,19.3429],[-99.30802,19.34297],[-99.30799,19.34319],[-99.30792999999999,19.34361],[-99.30784,19.34436],[-99.30782000000001,19.34445],[-99.30780999999999,19.34452],[-99.30777000000001,19.34468],[-99.30775,19.34477],[-99.30770000000001,19.34494],[-99.30765000000001,19.34509],[-99.30761,19.34519],[-99.30752,19.34545],[-99.30732999999999,19.34599],[-99.30723,19.3463],[-99.30715000000001,19.34653],[-99.30701999999999,19.3469],[-99.30691,19.34722],[-99.30689,19.34729],[-99.30686999999999,19.34739],[-99.30683999999999,19.34752],[-99.3068,19.34773],[-99.30670999999998,19.34814],[-99.30667,19.34842],[-99.30665999999999,19.34847],[-99.30664000000002,19.34852],[-99.30663,19.34855],[-99.30662,19.34858],[-99.30658999999999,19.34865],[-99.30656000000001,19.34874],[-99.30653,19.34885],[-99.30651,19.34895],[-99.30649,19.34909],[-99.30649,19.34918],[-99.30649,19.34927],[-99.30645,19.34969],[-99.30636999999999,19.35008],[-99.30631000000001,19.35048],[-99.30624999999999,19.35078],[-99.30619,19.35111],[-99.30613,19.35141],[-99.30607999999999,19.3516],[-99.30606,19.35168],[-99.30602999999999,19.35179],[-99.30595,19.35202],[-99.30585000000001,19.35228],[-99.30568,19.35267],[-99.30554000000001,19.35297],[-99.30540000000001,19.35331],[-99.30533,19.35346],[-99.30528,19.35356],[-99.30514999999998,19.35389],[-99.30509000000001,19.35402],[-99.30503000000002,19.35415],[-99.30474,19.35491],[-99.30463,19.35515],[-99.30447999999998,19.35551],[-99.30430999999999,19.35597],[-99.30423999999999,19.35613],[-99.30408,19.35649],[-99.304,19.35669],[-99.30388000000001,19.35701],[-99.30383999999999,19.35719],[-99.30375999999998,19.35749],[-99.30365999999999,19.35805],[-99.30364000000002,19.35835],[-99.30364000000002,19.35864],[-99.30367,19.35909],[-99.30374000000001,19.35965],[-99.3038,19.36005],[-99.30381000000001,19.36013],[-99.30382,19.36021],[-99.30395,19.36087],[-99.30399,19.36109],[-99.3043,19.36272],[-99.30432999999999,19.36307],[-99.30432999999999,19.36324],[-99.30432,19.36354],[-99.30430999999999,19.36366],[-99.30425,19.36397],[-99.30422,19.36406],[-99.30416,19.36431],[-99.30408999999999,19.36446],[-99.30392999999998,19.3648],[-99.3035,19.36556],[-99.30323,19.36594],[-99.30303999999998,19.36615],[-99.30280000000002,19.36641],[-99.30267000000001,19.36654],[-99.30253999999998,19.36664],[-99.3025,19.36668],[-99.30222999999999,19.36697],[-99.30197999999999,19.36725],[-99.30177999999999,19.36747],[-99.30141000000002,19.36786],[-99.30130999999999,19.36797],[-99.30095,19.36835],[-99.30069000000002,19.36864],[-99.30058999999999,19.36875],[-99.30025999999998,19.3691],[-99.30015,19.36922],[-99.29985000000002,19.36956],[-99.29971000000001,19.36975],[-99.29947999999999,19.37006],[-99.29934,19.37028],[-99.29913999999999,19.37064],[-99.29909000000001,19.37074],[-99.29902999999999,19.37086],[-99.29895000000001,19.37102],[-99.2989,19.37115],[-99.29885999999999,19.37125],[-99.2988,19.3714],[-99.29875000000001,19.37154],[-99.29871,19.37167],[-99.29867,19.37179],[-99.29863999999999,19.37191],[-99.29861,19.37202],[-99.29859,19.37212],[-99.29856,19.37225],[-99.29853000000001,19.37242],[-99.29852,19.37251],[-99.29849,19.37268],[-99.29847,19.37289],[-99.29846000000001,19.37304],[-99.29845,19.37334],[-99.29845,19.37357],[-99.29846000000001,19.37383],[-99.29847,19.37394],[-99.29849,19.37417],[-99.29852,19.37437],[-99.29855000000001,19.3746],[-99.29862,19.37499],[-99.29866,19.37514],[-99.29868999999999,19.37527],[-99.29877000000001,19.37555],[-99.2988,19.37568],[-99.29883,19.37582],[-99.29888,19.37613],[-99.29892000000001,19.37645],[-99.29893,19.37664],[-99.29894,19.37675],[-99.29894,19.37688],[-99.29893,19.37713],[-99.29891000000002,19.37725],[-99.29889,19.37738],[-99.29887000000001,19.37751],[-99.29882000000001,19.37768],[-99.29879,19.37778],[-99.29877000000001,19.37783],[-99.29876,19.37789],[-99.29874,19.37793],[-99.29868999999999,19.37804],[-99.29853000000001,19.37836],[-99.29837000000001,19.37864],[-99.29821,19.37889],[-99.29796,19.37928],[-99.29774999999999,19.3796],[-99.29770000000001,19.37967],[-99.29756,19.37989],[-99.29725999999998,19.38042],[-99.29707999999999,19.38076],[-99.29696,19.38099],[-99.29686999999998,19.38115],[-99.29676000000001,19.38142],[-99.29668,19.38162],[-99.29661,19.38182],[-99.29652000000002,19.38209],[-99.29644,19.38238],[-99.29633,19.38283],[-99.29624,19.38332],[-99.29612,19.38394],[-99.29602,19.3844],[-99.29585999999999,19.38514],[-99.29566,19.38611],[-99.29556,19.3866],[-99.29547999999998,19.38702],[-99.29541000000002,19.38754],[-99.29537000000001,19.38777],[-99.29535999999999,19.38786],[-99.29535,19.388],[-99.29533000000001,19.38834],[-99.29532,19.38855],[-99.29533000000001,19.38892],[-99.29535999999999,19.38934],[-99.29539,19.38974],[-99.29544,19.39011],[-99.29546000000002,19.39023],[-99.29546000000002,19.39035],[-99.29555000000001,19.39109],[-99.29555000000001,19.39114],[-99.29562,19.39168],[-99.29592000000001,19.39415],[-99.29597000000001,19.39443],[-99.29600000000001,19.39471],[-99.29607,19.39525],[-99.29612,19.39563],[-99.29619999999999,19.39613],[-99.29633,19.39687],[-99.29652999999999,19.39795],[-99.29657,19.3982],[-99.29661,19.39844],[-99.29679,19.3992],[-99.29689000000001,19.3997],[-99.29695,19.39997],[-99.29703999999998,19.40042],[-99.2971,19.40082],[-99.29714000000001,19.40118],[-99.29715,19.40136],[-99.29716000000001,19.40175],[-99.29716000000001,19.4018],[-99.29715,19.40195],[-99.29715,19.40205],[-99.29713,19.40239],[-99.29711,19.40259],[-99.29705,19.40299],[-99.29703000000001,19.40309],[-99.29698999999999,19.40326],[-99.29695,19.40343],[-99.29686000000001,19.40379],[-99.29678,19.40406],[-99.29644999999999,19.40517],[-99.29614999999998,19.40618],[-99.29604000000001,19.4066],[-99.29597999999999,19.40686],[-99.29591000000002,19.40717],[-99.29585999999999,19.40744],[-99.29585,19.4075],[-99.29580999999999,19.40791],[-99.29580000000001,19.40801],[-99.29580999999999,19.40831],[-99.29584,19.40854],[-99.29595000000001,19.40903],[-99.29604999999999,19.40933],[-99.29611,19.40946],[-99.29655,19.41036],[-99.29669999999999,19.4107],[-99.29695,19.41121],[-99.29722,19.41179],[-99.2975,19.41238],[-99.29762,19.41264],[-99.29777,19.41295],[-99.29813999999999,19.41366],[-99.29844,19.41428],[-99.29862,19.41461],[-99.29877000000001,19.41488],[-99.29883,19.41502],[-99.2989,19.4152],[-99.29904999999999,19.41559],[-99.29926,19.41618],[-99.29935999999999,19.41642],[-99.29940000000001,19.41652],[-99.29944999999999,19.41665],[-99.29962,19.41706],[-99.29969,19.41728],[-99.29978,19.41758],[-99.29981000000001,19.41767],[-99.29984,19.41777],[-99.29988,19.41793],[-99.29991999999999,19.41809],[-99.29996,19.4183],[-99.29998000000001,19.41842],[-99.3,19.41865],[-99.30001,19.41867],[-99.30002000000002,19.41886],[-99.30002000000002,19.419],[-99.30001,19.41916],[-99.29998999999998,19.41929],[-99.29997000000002,19.41944],[-99.29994000000001,19.41957],[-99.29989999999999,19.41974],[-99.29985000000002,19.41988],[-99.29979,19.42006],[-99.29974,19.4202],[-99.29964999999999,19.42038],[-99.29957,19.42056],[-99.29956,19.42058],[-99.29946,19.42076],[-99.29930999999999,19.421],[-99.29929,19.42103],[-99.29924,19.4211],[-99.29916,19.42122],[-99.29904000000001,19.42137],[-99.29880999999999,19.42162],[-99.29877000000001,19.42167],[-99.29842000000001,19.42202],[-99.29810000000001,19.42233],[-99.29769000000002,19.4227],[-99.29712000000001,19.42321],[-99.29657,19.42372],[-99.29639,19.42388],[-99.29622999999999,19.42404],[-99.29604000000001,19.42424],[-99.29574,19.42458],[-99.29563999999999,19.42472],[-99.29547,19.42499],[-99.29537999999999,19.42515],[-99.29530999999999,19.42528],[-99.29521,19.42556],[-99.29516,19.42576],[-99.29510999999999,19.42608],[-99.29508000000001,19.4263],[-99.29507,19.4265],[-99.29506000000001,19.42676],[-99.29506000000001,19.42679],[-99.29507,19.42702],[-99.29508999999999,19.4272],[-99.29510999999999,19.42732],[-99.29513,19.42753],[-99.29515000000001,19.42773],[-99.29521,19.428],[-99.29535,19.4285],[-99.2954,19.42867],[-99.29554,19.42907],[-99.29559,19.42922],[-99.29579,19.42967],[-99.29599,19.43013],[-99.29609000000001,19.43036],[-99.29619999999999,19.43066],[-99.29633,19.43099],[-99.29644999999999,19.43127],[-99.29682,19.43218],[-99.29688,19.43236],[-99.29689999999999,19.43242],[-99.29697000000002,19.43264],[-99.29703999999998,19.43286],[-99.29707000000001,19.433],[-99.29707999999999,19.43307],[-99.29711,19.4333],[-99.29712000000001,19.43336],[-99.29713,19.43348],[-99.29715,19.43375],[-99.29716999999999,19.43403],[-99.29716999999999,19.43415],[-99.29718,19.43424],[-99.29719000000002,19.4344],[-99.29718,19.43492],[-99.29719000000002,19.43503],[-99.29718,19.43525],[-99.29718,19.4356],[-99.29715,19.43637],[-99.29714000000001,19.43677],[-99.29713,19.43733],[-99.29713,19.43757],[-99.29713,19.43779],[-99.29714000000001,19.43807],[-99.29715,19.43836],[-99.29716999999999,19.43875],[-99.29721000000001,19.43907],[-99.29728,19.43971],[-99.29732,19.43996],[-99.29736000000001,19.44016],[-99.29738999999999,19.44032],[-99.29745,19.44054],[-99.29753000000001,19.44083],[-99.29765999999999,19.44116],[-99.29777,19.44162],[-99.2978,19.44168],[-99.29780999999998,19.44173],[-99.29783000000001,19.44183],[-99.29787,19.44203],[-99.29791999999999,19.44232],[-99.29796999999999,19.4426],[-99.29801000000001,19.44288],[-99.29805,19.4431],[-99.29810000000001,19.44326],[-99.29816,19.44349],[-99.29821,19.44364],[-99.29825999999999,19.44376],[-99.2983,19.44385],[-99.29834,19.44396],[-99.29842999999998,19.44413],[-99.29854,19.44437],[-99.29876,19.44478],[-99.29887000000001,19.44494],[-99.29899,19.44512],[-99.29916,19.44535],[-99.29934,19.44557],[-99.29957999999999,19.44588],[-99.29981999999998,19.44617],[-99.30006,19.44648],[-99.30044,19.44693],[-99.30086000000001,19.44748],[-99.30119000000002,19.44791],[-99.30163999999999,19.44846],[-99.30168999999999,19.44852],[-99.30176,19.4486],[-99.30199,19.44887],[-99.30226,19.44918],[-99.30262000000001,19.44961],[-99.30284,19.4499],[-99.30303999999998,19.45016],[-99.30316999999999,19.45031],[-99.30332,19.45051],[-99.30389,19.45122],[-99.30437000000001,19.45182],[-99.30475000000001,19.45231],[-99.30509000000001,19.45271],[-99.30534,19.45304],[-99.30556,19.45333],[-99.30588,19.45371],[-99.30617,19.45408],[-99.30636,19.45431],[-99.3069,19.45499],[-99.30710999999999,19.45525],[-99.30728000000001,19.45548],[-99.30737000000001,19.45561],[-99.30753000000001,19.45585],[-99.30766,19.45608],[-99.30782000000001,19.4564],[-99.30786000000002,19.45648],[-99.30791000000002,19.4566],[-99.30800000000001,19.45678],[-99.30809999999998,19.45705],[-99.30820000000001,19.45733],[-99.30828,19.45758],[-99.30835999999999,19.45788],[-99.30842000000001,19.45817],[-99.30849000000001,19.45852],[-99.30864,19.45918],[-99.30874,19.45972],[-99.30886999999999,19.46042],[-99.30889999999999,19.46062],[-99.30920999999998,19.46214],[-99.30931999999999,19.46261],[-99.30941,19.46303],[-99.30947000000002,19.46333],[-99.30951,19.46356],[-99.30956999999999,19.46394],[-99.30968,19.46466],[-99.30972,19.4648],[-99.30976000000001,19.46503],[-99.30979000000001,19.46518],[-99.30985,19.46538],[-99.30993000000001,19.46571],[-99.30998000000001,19.4659],[-99.31005,19.46612],[-99.31012,19.46639],[-99.31018,19.46656],[-99.31023999999999,19.46676],[-99.31027,19.46689],[-99.31037000000001,19.46711],[-99.31048000000001,19.46739],[-99.31058,19.46767],[-99.31075999999999,19.46815],[-99.31092999999999,19.46863],[-99.31102,19.46892],[-99.31108999999999,19.46911],[-99.31113000000001,19.46921],[-99.31122000000001,19.46941],[-99.31131999999998,19.46963],[-99.31142000000001,19.46988],[-99.3115,19.4701],[-99.31161,19.4704],[-99.31162000000001,19.47043],[-99.31174,19.47077],[-99.31188,19.47114],[-99.31213,19.47177],[-99.31238000000001,19.47244],[-99.31247000000002,19.47264],[-99.31253999999998,19.47286],[-99.31256000000001,19.47289],[-99.31269999999999,19.47327],[-99.31291999999999,19.47391],[-99.31303,19.4742],[-99.31313,19.47449],[-99.31318,19.47461],[-99.31323999999999,19.47475],[-99.3133,19.47489],[-99.3134,19.4751],[-99.31341999999999,19.47517],[-99.31347,19.47535],[-99.31358,19.47562],[-99.31379,19.47617],[-99.31389,19.47648],[-99.3139,19.4765],[-99.31397,19.47675],[-99.31402,19.47693],[-99.31407,19.47721],[-99.31409999999998,19.47735],[-99.31411,19.47749],[-99.31413000000001,19.47763],[-99.31415000000001,19.47782],[-99.31417,19.47805],[-99.31417,19.4783],[-99.31416,19.47859],[-99.31414,19.47889],[-99.31409999999998,19.47928],[-99.31399999999999,19.47973],[-99.31394,19.47999],[-99.31387000000001,19.48023],[-99.31382000000001,19.48041],[-99.31382000000001,19.48042],[-99.31375,19.48062],[-99.31366,19.48086],[-99.31358999999999,19.48102],[-99.3134,19.48148],[-99.31320999999998,19.48189],[-99.31310000000001,19.48213],[-99.31278,19.48279],[-99.31241,19.48359],[-99.31198999999998,19.48446],[-99.31174,19.48496],[-99.31125999999999,19.48599],[-99.31077000000001,19.48704],[-99.31058999999999,19.48742],[-99.31045,19.48771],[-99.30982,19.48908],[-99.30965999999998,19.48942],[-99.30942000000002,19.48992],[-99.30922,19.49034],[-99.30907999999999,19.49064],[-99.30898999999998,19.4909],[-99.30891,19.49111],[-99.30885000000001,19.49131],[-99.30876000000001,19.49161],[-99.30868,19.49194],[-99.30859000000001,19.49234],[-99.30847999999999,19.49299],[-99.30834,19.49381],[-99.30809999999998,19.49499],[-99.30808999999999,19.49502],[-99.30803000000002,19.4953],[-99.30763,19.49693],[-99.30752,19.49735],[-99.30744,19.49769],[-99.30737999999998,19.49788],[-99.30728000000001,19.49812],[-99.30718,19.49834],[-99.30705,19.4986],[-99.3069,19.49884],[-99.30672,19.49909],[-99.30655,19.49932],[-99.30634000000001,19.49953],[-99.30613,19.49973],[-99.30596,19.49988],[-99.30571000000001,19.50008],[-99.30533,19.50037],[-99.30471,19.50084],[-99.30447,19.50103],[-99.30383000000001,19.50154],[-99.30323,19.50202],[-99.30298000000001,19.50222],[-99.30249000000001,19.5026],[-99.30206,19.50294],[-99.30159,19.50331],[-99.30117,19.50364],[-99.30072,19.504],[-99.30029,19.50433],[-99.29989999999999,19.50464],[-99.2996,19.50489],[-99.29927000000001,19.50518],[-99.29912,19.50533],[-99.29892000000001,19.50553],[-99.29867,19.5058],[-99.29827,19.50626],[-99.29789,19.5067],[-99.29769000000002,19.50696],[-99.29748000000001,19.50724],[-99.29715,19.50771],[-99.29685000000002,19.50817],[-99.29662,19.50853],[-99.29630000000002,19.50908],[-99.29594,19.50968],[-99.29571,19.51006],[-99.29563999999999,19.51018],[-99.29496,19.5112],[-99.29482,19.51142],[-99.29478,19.51149],[-99.29475999999998,19.51151],[-99.29474000000002,19.51155],[-99.29472,19.51159],[-99.29454,19.51186],[-99.29425999999998,19.51234],[-99.29398000000001,19.5128],[-99.29364000000001,19.51336],[-99.29340000000001,19.51375],[-99.29319,19.51408],[-99.29294,19.51446],[-99.29271,19.51478],[-99.29249,19.51508],[-99.29222,19.51544],[-99.29197999999998,19.51574],[-99.29170000000001,19.51608],[-99.2914,19.51644],[-99.29119000000001,19.51668],[-99.29086999999998,19.51702],[-99.29047000000001,19.51742],[-99.29014000000001,19.51774],[-99.28968999999999,19.51818],[-99.28918999999999,19.51867],[-99.28883999999999,19.51903],[-99.28848000000001,19.51938],[-99.28830999999998,19.51955],[-99.28825000000001,19.51961],[-99.28824000000002,19.51962],[-99.28805,19.51982],[-99.28545,19.52236],[-99.28504,19.52278],[-99.28496,19.52286],[-99.28446999999999,19.52335],[-99.28415,19.52369],[-99.28384,19.52404],[-99.28361,19.52433],[-99.28352000000001,19.52446],[-99.28335000000001,19.5247],[-99.28318999999999,19.52494],[-99.28301999999999,19.52518],[-99.28280999999998,19.52551],[-99.2826,19.52585],[-99.28246000000002,19.52611],[-99.28228,19.52644],[-99.28216999999999,19.52664],[-99.2821,19.5268],[-99.28189999999999,19.52721],[-99.28167000000001,19.5277],[-99.28153,19.52799],[-99.28144,19.52821],[-99.28135000000002,19.52847],[-99.28124999999999,19.52878],[-99.28119000000001,19.52899],[-99.28107,19.52953],[-99.28094,19.53015],[-99.28081,19.53071],[-99.28066,19.53122],[-99.28051000000002,19.53172],[-99.28033000000001,19.5323],[-99.28018000000002,19.5328],[-99.28014,19.53294],[-99.28002999999998,19.53333],[-99.27992,19.53376],[-99.27983999999999,19.53409],[-99.27977,19.53437],[-99.27973999999999,19.53459],[-99.27970000000001,19.53493],[-99.27968,19.53507],[-99.27966000000001,19.53531],[-99.27963000000001,19.53559],[-99.27961000000001,19.53576],[-99.27959,19.53588],[-99.27951,19.53629],[-99.27946000000001,19.53655],[-99.27941000000001,19.53675],[-99.27932,19.53715],[-99.27925999999999,19.53737],[-99.27906,19.53821],[-99.27893,19.53878],[-99.27886000000001,19.53909],[-99.27876000000001,19.53939],[-99.2786,19.53985],[-99.27848,19.54029],[-99.27833,19.54083],[-99.27818000000002,19.5414],[-99.27807000000001,19.54188],[-99.27799,19.54226],[-99.27755000000001,19.5437],[-99.27740999999999,19.54466],[-99.27726,19.54527],[-99.27719999999998,19.54556],[-99.27716,19.5458],[-99.27714,19.54594],[-99.27710999999999,19.54617],[-99.27706000000001,19.54673],[-99.27705,19.547],[-99.27704,19.54727],[-99.27702999999998,19.54796],[-99.27704,19.54837],[-99.27705,19.54864],[-99.27707999999998,19.54924],[-99.27714,19.55],[-99.27718000000002,19.5507],[-99.27723999999999,19.55118],[-99.27740999999999,19.55288],[-99.27755999999999,19.55419],[-99.27759,19.55452],[-99.27762999999999,19.55503],[-99.27764000000001,19.55519],[-99.27764999999999,19.5553],[-99.27764999999999,19.55546],[-99.27764999999999,19.55581],[-99.27762,19.55612],[-99.27760000000001,19.55626],[-99.27759,19.55639],[-99.27755999999999,19.55652],[-99.27751000000002,19.55679],[-99.27748,19.5569],[-99.27745,19.55705],[-99.27740999999999,19.55717],[-99.27737999999999,19.55729],[-99.27737000000001,19.55732],[-99.27734,19.55743],[-99.27728999999999,19.55756],[-99.27724999999998,19.55768],[-99.27719999999998,19.55781],[-99.2771,19.55805],[-99.27701999999999,19.5582],[-99.27692,19.55841],[-99.27673999999999,19.55874],[-99.27666000000001,19.55887],[-99.27659,19.55899],[-99.27641000000001,19.55928],[-99.27623,19.55953],[-99.27598,19.55993],[-99.27568999999998,19.56038],[-99.2756,19.56054],[-99.27548,19.56075],[-99.27528,19.56113],[-99.27504999999999,19.5615],[-99.27485000000002,19.56187],[-99.27457999999999,19.56227],[-99.27437999999999,19.56259],[-99.27422,19.56283],[-99.27388999999999,19.5633],[-99.27356,19.56378],[-99.27332,19.56413],[-99.27301,19.5646],[-99.27279000000002,19.56494],[-99.27254000000001,19.56535],[-99.27222,19.56589],[-99.27196999999998,19.56628],[-99.27182000000001,19.5665],[-99.27119999999999,19.56754],[-99.27094,19.56797],[-99.27082,19.56818],[-99.27070000000001,19.56844],[-99.27059,19.56867],[-99.27048000000001,19.56893],[-99.27039000000001,19.56917],[-99.27030000000001,19.5694],[-99.27018999999999,19.56971],[-99.2701,19.56995],[-99.27005,19.57009],[-99.27001000000001,19.57022],[-99.26997,19.57034],[-99.26994000000001,19.57047],[-99.26989999999999,19.57061],[-99.26987,19.57074],[-99.26984000000002,19.57085],[-99.26982,19.571],[-99.2698,19.57116],[-99.26978,19.57127],[-99.26976000000001,19.57142],[-99.26975,19.57154],[-99.26974000000001,19.57167],[-99.26973,19.57191],[-99.26972000000001,19.5722],[-99.26972000000001,19.57246],[-99.26972000000001,19.57276],[-99.26971,19.57304],[-99.26971,19.57326],[-99.2697,19.5734],[-99.2697,19.57351],[-99.26968999999998,19.57366],[-99.26967000000002,19.57389],[-99.26967000000002,19.57402],[-99.26966,19.57415],[-99.26966,19.57433],[-99.26966,19.57456],[-99.26967000000002,19.5747],[-99.26967000000002,19.57486],[-99.2697,19.57517],[-99.26972000000001,19.57532],[-99.26974000000001,19.5756],[-99.26976999999999,19.57606],[-99.26976999999999,19.57617],[-99.26976999999999,19.57629],[-99.26976999999999,19.57649],[-99.26976000000001,19.57668],[-99.26976000000001,19.57673],[-99.26976000000001,19.5768],[-99.26975,19.57688],[-99.26972000000001,19.57709],[-99.26971,19.57716],[-99.2697,19.57722],[-99.26967000000002,19.57747],[-99.26965,19.5776],[-99.26962000000002,19.57779],[-99.26956,19.57807],[-99.26951999999999,19.57832],[-99.26945000000002,19.57869],[-99.26929999999999,19.57947],[-99.26917999999999,19.5799],[-99.26912000000002,19.58007],[-99.26904,19.58029],[-99.26894,19.58054],[-99.26879999999999,19.58088],[-99.26864000000001,19.58125],[-99.26848,19.58161],[-99.26843,19.5817],[-99.26840999999999,19.58175],[-99.26836,19.58185],[-99.26823000000002,19.58213],[-99.26806999999999,19.58249],[-99.26802000000001,19.58262],[-99.26795,19.58279],[-99.26785000000001,19.58305],[-99.26775000000001,19.58331],[-99.26770999999999,19.58345],[-99.26763000000001,19.58369],[-99.26755,19.58393],[-99.26751000000002,19.58405],[-99.26743999999999,19.58428],[-99.26738,19.58448],[-99.26729000000002,19.58477],[-99.26723,19.58494],[-99.26715,19.58516],[-99.26711,19.58526],[-99.26705,19.58541],[-99.26694999999999,19.58561],[-99.26689999999999,19.58572],[-99.26683,19.58583],[-99.26675,19.58597],[-99.26661,19.58618],[-99.26644,19.5864],[-99.26626,19.58661],[-99.26616,19.58674],[-99.26609999999999,19.5868],[-99.26604,19.58686],[-99.26595000000002,19.58696],[-99.26581,19.58711],[-99.26566,19.58724],[-99.26552000000001,19.58735],[-99.26540000000001,19.58745],[-99.26522,19.58758],[-99.26509,19.58768],[-99.26493000000001,19.58779],[-99.26481,19.58787],[-99.26469,19.58794],[-99.26437,19.58812],[-99.26418999999999,19.58822],[-99.264,19.58833],[-99.26349,19.58862],[-99.26305000000001,19.58886],[-99.25637999999999,19.59254],[-99.256,19.59275],[-99.25581,19.59285],[-99.25576,19.59288],[-99.25575000000001,19.59288],[-99.25569,19.59291],[-99.25511999999999,19.59324],[-99.25489000000002,19.59336],[-99.25421,19.59373],[-99.25363,19.59404],[-99.25297000000001,19.59438],[-99.25254,19.59461],[-99.25226000000001,19.59476],[-99.25188,19.59499],[-99.25165,19.59516],[-99.25142,19.59533],[-99.25127000000001,19.59545],[-99.25118000000001,19.59552],[-99.25101000000001,19.59567],[-99.25088,19.59579],[-99.25042000000001,19.59623],[-99.25,19.59664],[-99.24957000000001,19.59707],[-99.24907,19.59758],[-99.24854000000001,19.59811],[-99.24805000000002,19.59858],[-99.24755999999999,19.59906],[-99.24706999999998,19.59954],[-99.24672,19.59989],[-99.24608000000001,19.60051],[-99.24585,19.60072],[-99.2457,19.60087],[-99.24559000000001,19.60097],[-99.24548,19.60107],[-99.24518000000001,19.60138],[-99.24463,19.60194],[-99.24389999999998,19.60268],[-99.24289000000002,19.60371],[-99.24181,19.60476],[-99.24032,19.60615],[-99.24014,19.60632],[-99.24005999999999,19.60639],[-99.24003999999999,19.60641],[-99.23997,19.60647],[-99.23979,19.60665],[-99.23975,19.60668],[-99.23954999999999,19.60688],[-99.23918999999999,19.60722],[-99.23844,19.60791],[-99.23791,19.6084],[-99.23712,19.6091],[-99.23688999999999,19.60931],[-99.23688,19.60932],[-99.23681000000001,19.60937],[-99.23681000000001,19.60938],[-99.23679,19.6094],[-99.23665,19.60952],[-99.23641000000001,19.60974],[-99.23616,19.60995],[-99.23560999999999,19.61041],[-99.23535,19.61061],[-99.23520000000001,19.61075],[-99.2351,19.61084],[-99.23496,19.61096],[-99.23457999999999,19.61129],[-99.23402,19.61179],[-99.23402,19.6118],[-99.23397,19.61184],[-99.23396,19.61185],[-99.23390000000001,19.6119],[-99.23379,19.61201],[-99.23315,19.6126],[-99.23286,19.61286],[-99.23251000000001,19.61311],[-99.23237,19.6132],[-99.23224,19.61328],[-99.23184999999999,19.61349],[-99.23130999999999,19.61371],[-99.23109,19.61379],[-99.2307,19.61394],[-99.2303,19.61412],[-99.23004,19.6143],[-99.22996999999999,19.61437],[-99.22975,19.61456],[-99.22957,19.61478],[-99.22913,19.61544],[-99.22893000000002,19.61578],[-99.22872999999999,19.61613],[-99.22842,19.61658],[-99.22808000000001,19.61703],[-99.22793999999999,19.6172],[-99.22776,19.61741],[-99.2274,19.61776],[-99.22619,19.61889],[-99.22557999999999,19.61943],[-99.22502,19.61997],[-99.22462,19.62033],[-99.22443,19.62052],[-99.22415,19.62074],[-99.22395,19.62089],[-99.22348,19.6212],[-99.22307000000001,19.62145],[-99.22297,19.62152],[-99.22282,19.62164],[-99.22208999999999,19.62231],[-99.22193,19.62248],[-99.22181000000001,19.62258],[-99.22163000000001,19.62274],[-99.22143,19.6229],[-99.22109,19.62317],[-99.22021999999998,19.62385],[-99.22015000000002,19.6239],[-99.21992,19.62409],[-99.21980000000001,19.6242],[-99.21977999999999,19.62423],[-99.21975999999999,19.62425],[-99.21964,19.62436],[-99.21939999999999,19.62468],[-99.21903,19.62524],[-99.21893,19.62538],[-99.21883000000001,19.6255],[-99.21872000000001,19.62562],[-99.21855999999998,19.62576],[-99.21827999999998,19.62597],[-99.21765000000002,19.62639],[-99.21733,19.62661],[-99.21693000000002,19.62692],[-99.21419,19.62951],[-99.21395,19.62971],[-99.21380000000001,19.62982],[-99.21365000000002,19.62994],[-99.21349999999998,19.63005],[-99.21158,19.63152],[-99.21052,19.63236],[-99.21002,19.63277],[-99.20985,19.63292],[-99.20951,19.63322],[-99.20928000000001,19.63341],[-99.20905000000001,19.63361],[-99.20866000000001,19.63395],[-99.20842999999999,19.63413],[-99.20831,19.63422],[-99.20820000000002,19.63429],[-99.20809,19.63436],[-99.20794000000001,19.63444],[-99.20769,19.63457],[-99.20744999999999,19.63467],[-99.20719,19.63474],[-99.20699999999998,19.63479],[-99.20652,19.63488],[-99.20650000000001,19.63489],[-99.20605000000001,19.63501],[-99.20569999999999,19.63508],[-99.20514,19.63518],[-99.20457,19.63526],[-99.20419,19.63528],[-99.20384,19.63529],[-99.20365999999999,19.6353],[-99.20275,19.63539],[-99.20259000000002,19.6354],[-99.20258,19.6354],[-99.20252000000001,19.63541],[-99.20241,19.63541],[-99.20211999999999,19.63544],[-99.20179,19.63545],[-99.20120999999999,19.6355],[-99.20101,19.63551],[-99.2008,19.63553],[-99.20014999999999,19.63558],[-99.19995,19.63559],[-99.19991,19.6356],[-99.19975,19.63561],[-99.19862999999999,19.6357],[-99.19785,19.63578],[-99.1974,19.63586],[-99.19705,19.63592],[-99.19677,19.63599],[-99.19606,19.63623],[-99.1949,19.63671],[-99.19446000000001,19.63689],[-99.19402,19.63708],[-99.19367,19.63716],[-99.19305,19.63739],[-99.19287000000001,19.63745],[-99.1925,19.6376],[-99.19232000000001,19.63767],[-99.19217,19.63771],[-99.19209999999998,19.63772],[-99.19203000000002,19.6377],[-99.19195000000001,19.63768],[-99.19186000000002,19.63764],[-99.19181000000002,19.63761],[-99.19175999999999,19.63756],[-99.19170000000001,19.63749],[-99.19167,19.6374],[-99.19166,19.63726],[-99.19165000000001,19.63716],[-99.19167,19.63711],[-99.19170999999999,19.63704],[-99.19175999999999,19.63697],[-99.19182000000001,19.63693],[-99.19189,19.63688],[-99.19212,19.63676],[-99.19342000000002,19.63621],[-99.19373,19.6361],[-99.19383999999999,19.63609],[-99.19387999999998,19.6361],[-99.19392000000002,19.63611],[-99.19395,19.63613],[-99.19398000000001,19.63615],[-99.19402,19.6362],[-99.19408,19.63632],[-99.19413,19.63648],[-99.19423999999999,19.63668],[-99.19427,19.63694],[-99.19429,19.63709],[-99.19431000000002,19.63726],[-99.19431000000002,19.63727],[-99.19437999999998,19.63775],[-99.19441000000001,19.6379],[-99.19455000000001,19.63882],[-99.19474,19.63996],[-99.19498000000002,19.64118],[-99.19508999999999,19.64188],[-99.19516,19.64222],[-99.19528,19.64297],[-99.19537000000001,19.64354],[-99.19537000000001,19.64355],[-99.19547999999999,19.64429],[-99.19551,19.64447],[-99.19552,19.64451],[-99.19556,19.64468],[-99.19556,19.64469],[-99.19559999999999,19.64506],[-99.19571000000001,19.64588],[-99.19583,19.64637],[-99.19593999999998,19.64679],[-99.19595,19.64683],[-99.19598999999998,19.64688],[-99.196,19.6469],[-99.19602999999999,19.64698],[-99.19604000000001,19.64701],[-99.19611999999999,19.6474],[-99.19614,19.64745],[-99.19618,19.64754],[-99.19626000000001,19.64771],[-99.19631,19.648],[-99.19631999999999,19.64827],[-99.19653,19.64947],[-99.19661000000001,19.65001],[-99.19667,19.65041],[-99.19673,19.65077],[-99.19678,19.65109],[-99.19681,19.65129],[-99.19732999999998,19.65433],[-99.19735,19.65448],[-99.19737999999998,19.65463],[-99.19745,19.65515],[-99.19782999999998,19.65746],[-99.19785,19.65751],[-99.19785,19.65755],[-99.19795000000001,19.65791],[-99.19817999999999,19.65935],[-99.19826999999998,19.65986],[-99.19858000000002,19.66176],[-99.19859,19.66186],[-99.19864,19.66215],[-99.19882000000001,19.66329],[-99.19911000000001,19.6652],[-99.19918,19.66551],[-99.19959000000002,19.66815],[-99.19964999999999,19.66846],[-99.19978,19.66914],[-99.1998,19.66936],[-99.19985,19.66961],[-99.19992000000002,19.6699],[-99.19996999999999,19.67013],[-99.20012,19.67107],[-99.20014999999999,19.67132],[-99.20031000000002,19.67218],[-99.20149000000001,19.67932],[-99.20153000000002,19.67956],[-99.20159,19.67994],[-99.20159999999999,19.68],[-99.20161,19.68005],[-99.20170999999999,19.68062],[-99.20175999999999,19.6809],[-99.202,19.6824],[-99.20224,19.68381],[-99.20263,19.68642],[-99.20285,19.68748],[-99.20291,19.68784],[-99.20295,19.68813],[-99.20326000000001,19.69],[-99.20355000000001,19.69177],[-99.20389,19.69402],[-99.20403,19.69486],[-99.20406,19.69502],[-99.20425,19.69611],[-99.20437,19.69689],[-99.20439,19.69701],[-99.20444999999999,19.69738],[-99.20452,19.69779],[-99.20459,19.69818],[-99.20465000000002,19.69855],[-99.20471999999998,19.69894],[-99.20475,19.69911],[-99.20479,19.69931],[-99.20486,19.69971],[-99.20493999999998,19.70014],[-99.20498000000002,19.7004],[-99.20507000000001,19.70117],[-99.20533,19.70258],[-99.20545,19.70323],[-99.20547999999999,19.70346],[-99.20551,19.7037],[-99.20571000000001,19.70481],[-99.20605999999999,19.70687],[-99.20631,19.70851],[-99.20655000000001,19.71006],[-99.20656,19.71009],[-99.20662,19.71052],[-99.20663999999999,19.71066],[-99.20677000000001,19.71131],[-99.2068,19.71148],[-99.20685,19.71172],[-99.20708999999999,19.71308],[-99.20719,19.71383],[-99.20726000000002,19.7143],[-99.20739,19.71499],[-99.20761,19.71627],[-99.20770999999999,19.71682],[-99.20847999999999,19.72131],[-99.20884,19.72369],[-99.209,19.72476],[-99.20926000000002,19.72632],[-99.20957,19.72823],[-99.20957,19.72824],[-99.20958,19.72828],[-99.20998999999999,19.73082],[-99.20999999999998,19.73088],[-99.21057999999999,19.73426],[-99.21123,19.73787],[-99.21146,19.73922],[-99.21149000000001,19.73939],[-99.21171999999999,19.74075],[-99.21173,19.74085],[-99.21196999999999,19.74224],[-99.21212,19.7431],[-99.21267,19.74643],[-99.21292,19.74796],[-99.21339999999999,19.75082],[-99.21366999999998,19.75245],[-99.21368,19.75252],[-99.2137,19.7526],[-99.21411000000001,19.75505],[-99.21416000000001,19.75539],[-99.21466000000001,19.75842],[-99.21473,19.75884],[-99.21512,19.7612],[-99.21519000000001,19.76166],[-99.21534,19.76254],[-99.21565999999999,19.76447],[-99.21576999999999,19.76505],[-99.21590999999999,19.7659],[-99.21608999999999,19.76692],[-99.21614,19.76731],[-99.21617000000001,19.76746],[-99.2163,19.76836],[-99.21657,19.76994],[-99.2167,19.77066],[-99.21672000000001,19.77075],[-99.21679,19.77123],[-99.21706,19.77275],[-99.21716999999998,19.77338],[-99.21737,19.77461],[-99.2174,19.77478],[-99.21753,19.77558],[-99.21759,19.77582],[-99.21764,19.77602],[-99.21771,19.77624],[-99.21776999999999,19.77642],[-99.21787000000002,19.77668],[-99.21798,19.77697],[-99.21809,19.77723],[-99.21813,19.7773],[-99.21814999999999,19.77736],[-99.21816000000001,19.77736],[-99.21823999999999,19.77754],[-99.21829,19.77765],[-99.21836,19.77776],[-99.21845,19.77792],[-99.2187,19.77836],[-99.21876,19.77846],[-99.21900000000001,19.77884],[-99.21946,19.77947],[-99.21974,19.77982],[-99.2203,19.78058],[-99.22083999999998,19.78134],[-99.22096999999999,19.78153],[-99.22166000000001,19.78261],[-99.22247,19.78383],[-99.22257000000001,19.78399],[-99.22262000000001,19.78405],[-99.22402,19.78611],[-99.22441000000001,19.7867],[-99.22483000000001,19.78732],[-99.22632,19.78957],[-99.2304,19.79564],[-99.23103999999999,19.79659],[-99.23221,19.79834],[-99.2332,19.79985],[-99.23344000000002,19.80029],[-99.23372999999998,19.80088],[-99.23405,19.80162],[-99.23437,19.80225],[-99.23484000000001,19.80333],[-99.23486,19.80336],[-99.23494999999998,19.80356],[-99.23671,19.80743],[-99.23829000000001,19.81084],[-99.23973000000001,19.814],[-99.24012999999999,19.81494],[-99.24015,19.81497],[-99.24016000000002,19.815],[-99.24072999999999,19.81629],[-99.24094,19.81675],[-99.24108,19.81701],[-99.24119,19.8172],[-99.24133000000002,19.8174],[-99.24151999999999,19.81764],[-99.24182,19.81799],[-99.24247,19.81875],[-99.24357000000001,19.82],[-99.24370999999999,19.82016],[-99.24384000000001,19.82032],[-99.24513,19.8218],[-99.24594000000002,19.82271],[-99.24621999999999,19.82304],[-99.24706999999998,19.82405],[-99.24767000000001,19.82468],[-99.24786,19.82487],[-99.24802,19.82501],[-99.24825,19.82518],[-99.24841000000001,19.82529],[-99.24863000000001,19.82543],[-99.24892,19.82558],[-99.24930999999999,19.82577],[-99.25005,19.82608],[-99.25055999999999,19.8263],[-99.25388,19.82766],[-99.25446000000001,19.8279],[-99.25606000000002,19.82855],[-99.25608,19.82856],[-99.25677,19.82885],[-99.25686,19.82889],[-99.25723999999998,19.82904],[-99.26078,19.83051],[-99.26291999999999,19.83138],[-99.26307000000001,19.83144],[-99.26636000000001,19.83278],[-99.26775000000001,19.83334],[-99.26871,19.83374],[-99.26983,19.8342],[-99.27030000000001,19.83439],[-99.27088000000001,19.83465],[-99.27140000000001,19.83496],[-99.27196999999998,19.83539],[-99.27249999999999,19.83586],[-99.273,19.83639],[-99.27348000000001,19.83694],[-99.27385999999999,19.8374],[-99.27405,19.83761],[-99.27407,19.83764],[-99.27423999999999,19.83782],[-99.2752,19.83889],[-99.27554000000001,19.83928],[-99.27728999999999,19.84116],[-99.27841999999998,19.84245],[-99.27943000000001,19.84359],[-99.28057999999999,19.84492],[-99.28213999999998,19.84665],[-99.28323,19.84787],[-99.28367,19.84843],[-99.28433,19.84917],[-99.28541000000001,19.85038],[-99.28553000000001,19.85052],[-99.28557000000002,19.85056],[-99.28576,19.85079],[-99.28579000000002,19.85081],[-99.28697000000001,19.85214],[-99.28704000000001,19.85223],[-99.28768,19.85285],[-99.28774999999999,19.85292],[-99.28849,19.85355],[-99.28871,19.85373],[-99.2889,19.85388],[-99.28969999999998,19.85455],[-99.29061,19.85532],[-99.29093,19.85559],[-99.29130999999998,19.85588],[-99.29170000000001,19.85611],[-99.29203000000001,19.85628],[-99.29228999999999,19.85639],[-99.29268,19.85654],[-99.29300000000001,19.85664],[-99.29340000000001,19.85677],[-99.29377,19.85689],[-99.29407999999999,19.85699],[-99.29424999999999,19.85704],[-99.29468,19.85717],[-99.29900000000001,19.85854],[-99.30058,19.85901],[-99.30168000000001,19.85933],[-99.30193,19.85942],[-99.30255,19.85961],[-99.30301,19.85978],[-99.30352000000002,19.85999],[-99.30408999999999,19.86025],[-99.30655,19.86135],[-99.307,19.86152],[-99.30773000000001,19.86177],[-99.30833,19.86192],[-99.30902999999999,19.86206],[-99.30931000000001,19.86212],[-99.30986000000002,19.86225],[-99.31022,19.86233],[-99.31332999999998,19.86299],[-99.31385,19.86311],[-99.31435999999999,19.86322],[-99.31487000000001,19.86333],[-99.31492000000002,19.86334],[-99.31538999999999,19.86344],[-99.3159,19.86355],[-99.3164,19.86365],[-99.3169,19.86376],[-99.31740000000001,19.86387],[-99.31791,19.864],[-99.3184,19.86414],[-99.31889,19.8643],[-99.31936,19.86448],[-99.31982000000001,19.86466],[-99.32029,19.86483],[-99.32075,19.86501],[-99.32121000000001,19.86518],[-99.32168,19.86536],[-99.32214000000002,19.86554],[-99.32260000000001,19.86571],[-99.32307,19.86589],[-99.32354000000001,19.86607],[-99.324,19.86625],[-99.32445,19.86642],[-99.3249,19.86659],[-99.32532999999998,19.86675],[-99.32576000000002,19.86691],[-99.32619,19.86708],[-99.32662999999999,19.86724],[-99.32706,19.86741],[-99.32749000000001,19.86757],[-99.32792000000002,19.86773],[-99.32836999999999,19.8679],[-99.32881000000002,19.86807],[-99.32922000000001,19.86824],[-99.32973,19.86848],[-99.33017,19.86871],[-99.33059,19.86898],[-99.331,19.86929],[-99.33138000000001,19.86962],[-99.33174,19.86997],[-99.33208999999999,19.87033],[-99.33244999999999,19.87069],[-99.33282000000001,19.87107],[-99.33319,19.87145],[-99.33357,19.87184],[-99.33387000000002,19.87214],[-99.33395,19.87222],[-99.33418,19.87246],[-99.33433000000001,19.87261],[-99.33434,19.87262],[-99.33474,19.87302],[-99.33476999999999,19.87305],[-99.33513000000001,19.87343],[-99.33552,19.87382],[-99.33983000000001,19.87838],[-99.34180000000001,19.88048],[-99.34235,19.88116],[-99.34265000000002,19.88183],[-99.34269000000001,19.88195],[-99.34276,19.8822],[-99.34292000000001,19.88316],[-99.343,19.88383],[-99.34309,19.88442],[-99.34309999999999,19.88448],[-99.34309999999999,19.88451],[-99.34311000000001,19.88452],[-99.34314000000001,19.88474],[-99.34338999999999,19.88651],[-99.34351,19.88681],[-99.34365,19.88716],[-99.34396,19.88808],[-99.34426000000002,19.88888],[-99.34439,19.88921],[-99.34457999999999,19.88971],[-99.34462000000001,19.88981],[-99.34463,19.88982],[-99.34466999999998,19.88991],[-99.34549999999999,19.89153],[-99.34578000000001,19.89201],[-99.34624,19.8928],[-99.34629,19.89291],[-99.34633000000001,19.89297],[-99.34634,19.89301],[-99.34643,19.89317],[-99.34669,19.89361],[-99.34676999999999,19.89376],[-99.34677999999998,19.89378],[-99.34708000000001,19.89429],[-99.34754,19.89516],[-99.34756,19.89519],[-99.34791,19.89583],[-99.34793000000002,19.89588],[-99.34797,19.89597],[-99.34799999999999,19.89604],[-99.34809,19.89625],[-99.34823,19.89648],[-99.34886,19.89746],[-99.34896000000001,19.8976],[-99.34902,19.89773],[-99.34923000000001,19.89808],[-99.34958,19.89871],[-99.34998,19.89942],[-99.35016000000002,19.89994],[-99.35021000000002,19.90044],[-99.3502,19.90085],[-99.35012,19.90141],[-99.3501,19.90154],[-99.35005000000001,19.9017],[-99.34997,19.90196],[-99.34984,19.90254],[-99.34969,19.90401],[-99.34968000000001,19.90432],[-99.3497,19.90456],[-99.34974,19.90472],[-99.34984,19.90511],[-99.34997,19.90552],[-99.35041,19.90629],[-99.35074,19.90675],[-99.35088000000002,19.9069],[-99.35161000000001,19.90748],[-99.35166999999998,19.90753],[-99.35175,19.9076],[-99.35218,19.90801],[-99.35245999999999,19.90828],[-99.35286000000001,19.90865],[-99.35375000000001,19.90952],[-99.35478000000001,19.91047],[-99.3548,19.91049],[-99.35516999999999,19.91073],[-99.35597,19.91115],[-99.35838,19.9123],[-99.35942,19.91283],[-99.36009,19.91319],[-99.36051000000001,19.91344],[-99.36187,19.91425],[-99.36194000000002,19.9143],[-99.36246,19.91462],[-99.36284000000001,19.91486],[-99.36295000000001,19.91494],[-99.36337,19.91524],[-99.36377,19.91552],[-99.36418000000001,19.9158],[-99.36508000000001,19.91626],[-99.36594,19.91679],[-99.36672000000002,19.91729],[-99.36718000000001,19.91758],[-99.36745999999998,19.91782],[-99.36775,19.91809],[-99.36812999999998,19.91847],[-99.3687,19.91907],[-99.36955,19.91999],[-99.36969000000001,19.92014],[-99.36997,19.92044],[-99.37025,19.92074],[-99.37054999999999,19.92104],[-99.37083999999999,19.92135],[-99.37114,19.92167],[-99.37145000000001,19.922],[-99.37177,19.92232],[-99.37208,19.92265],[-99.37239,19.92298],[-99.37269000000001,19.9233],[-99.37299,19.92362],[-99.3733,19.92395],[-99.37361,19.92428],[-99.37392,19.92461],[-99.37427,19.92499],[-99.37461000000002,19.92536],[-99.37495999999999,19.92572],[-99.37529000000001,19.92609],[-99.37563,19.92646],[-99.37597,19.92683],[-99.37631,19.92719],[-99.37665,19.92755],[-99.37698,19.92789],[-99.37732,19.92821],[-99.37769,19.92849],[-99.3781,19.92874],[-99.37855,19.92897],[-99.37900999999999,19.92917],[-99.37922999999999,19.92927],[-99.37948,19.92938],[-99.37993,19.92961],[-99.38035000000001,19.92989],[-99.38072,19.93022],[-99.38088000000001,19.93038],[-99.38105,19.93056],[-99.38126,19.93084],[-99.38140000000001,19.93113],[-99.38157000000001,19.93148],[-99.38177,19.93202],[-99.38206999999999,19.93289],[-99.38227999999999,19.93336],[-99.38240999999998,19.93361],[-99.38284000000002,19.93425],[-99.38296000000001,19.93442],[-99.38321999999999,19.93475],[-99.38343,19.935],[-99.38361,19.93525],[-99.38395999999999,19.93574],[-99.38432,19.93622],[-99.38467999999999,19.9367],[-99.38504,19.93719],[-99.38539999999999,19.93767],[-99.38576000000001,19.93814],[-99.38611,19.93861],[-99.38628,19.93886],[-99.38633,19.93891],[-99.38642,19.93904],[-99.38645,19.93907],[-99.38678,19.93952],[-99.38711000000001,19.93995],[-99.38741,19.94039],[-99.38769000000001,19.94082],[-99.3877,19.94083],[-99.38798,19.9413],[-99.38824000000001,19.94175],[-99.38849,19.94217],[-99.38871,19.94255],[-99.38872000000001,19.94257],[-99.38873999999998,19.94262],[-99.38875,19.94264],[-99.38881000000001,19.94275],[-99.38892,19.94294],[-99.38911,19.94328],[-99.38930000000001,19.94361],[-99.38952000000001,19.94393],[-99.38976,19.94424],[-99.39004,19.94453],[-99.39034,19.9448],[-99.39069000000001,19.94505],[-99.39107000000001,19.94526],[-99.39146000000001,19.94544],[-99.39184,19.94558],[-99.39222,19.94568],[-99.3926,19.94577],[-99.39297999999999,19.94585],[-99.39335000000001,19.94593],[-99.39374000000001,19.94604],[-99.39411,19.94616],[-99.39448,19.94631],[-99.39478,19.94646],[-99.39484,19.9465],[-99.39523,19.9467],[-99.39564,19.94692],[-99.39606000000001,19.94715],[-99.39639,19.94734],[-99.39690000000002,19.9476],[-99.39739,19.94787],[-99.39784,19.94812],[-99.39829000000002,19.94838],[-99.39873999999999,19.94863],[-99.39917,19.94887],[-99.39955999999999,19.94908],[-99.39991999999998,19.94928],[-99.40028,19.94948],[-99.40063999999998,19.94967],[-99.40098999999999,19.94987],[-99.40133,19.95005],[-99.40137,19.95008],[-99.40166000000001,19.95023],[-99.40199,19.95041],[-99.40233000000001,19.9506],[-99.40267,19.95079],[-99.40303,19.95098],[-99.40339,19.95118],[-99.40376000000001,19.95138],[-99.40415,19.9516],[-99.40456,19.95182],[-99.40497000000001,19.95205],[-99.40537999999999,19.95228],[-99.40577999999999,19.95251],[-99.40617,19.95273],[-99.40656,19.95294],[-99.40694000000001,19.95315],[-99.40730999999998,19.95336],[-99.40761000000001,19.95352],[-99.40766000000001,19.95355],[-99.40791000000002,19.95368],[-99.40828999999999,19.95386],[-99.40869999999998,19.95403],[-99.40909000000001,19.95418],[-99.40964000000001,19.95438],[-99.41003000000001,19.95452],[-99.41034000000001,19.95467],[-99.41063999999999,19.95481],[-99.41094,19.95499],[-99.41102999999998,19.95505],[-99.41117,19.95515],[-99.41128999999999,19.95524],[-99.41141000000002,19.95533],[-99.41152,19.95543],[-99.41162,19.95552],[-99.41172,19.9556],[-99.41181,19.95568],[-99.41189,19.95576],[-99.41199,19.95585],[-99.41207999999999,19.95594],[-99.41218000000002,19.95603],[-99.41226,19.95611],[-99.41235000000002,19.95619],[-99.41244,19.95626],[-99.41252000000002,19.95634],[-99.41261,19.95643],[-99.4127,19.95651],[-99.41279,19.95659],[-99.41288,19.95666],[-99.41298000000001,19.95675],[-99.41304,19.9568],[-99.41308999999998,19.95684],[-99.41321000000001,19.95693],[-99.41341999999999,19.95709],[-99.41369000000002,19.95723],[-99.41408000000001,19.95742],[-99.41454,19.95759],[-99.41495999999999,19.95772],[-99.41536999999998,19.95783],[-99.41658999999999,19.95816],[-99.41728000000001,19.95833],[-99.41844,19.95861],[-99.419,19.95878],[-99.41932,19.95889],[-99.41958999999999,19.95901],[-99.41972,19.95908],[-99.41996999999999,19.95924],[-99.42015000000001,19.95937],[-99.42047,19.95966],[-99.42101,19.96024],[-99.42162,19.96094],[-99.42198999999999,19.96139],[-99.42255,19.96208],[-99.42313999999999,19.96277],[-99.42349,19.96314],[-99.42368999999999,19.96336],[-99.42402,19.96366],[-99.42422999999999,19.96381],[-99.42464000000001,19.96409],[-99.42523,19.96445],[-99.42572,19.96475],[-99.42619000000002,19.96507],[-99.42662,19.96542],[-99.42674,19.96554],[-99.42684,19.96567],[-99.42711,19.96603],[-99.42728,19.96634],[-99.42744999999999,19.96668],[-99.42778,19.96748],[-99.42793,19.96784],[-99.42802,19.96802],[-99.42821000000001,19.9684],[-99.42841,19.96869],[-99.4286,19.96892],[-99.4288,19.96912],[-99.42927,19.96944],[-99.42944,19.96955],[-99.42979,19.96975],[-99.43023,19.96998],[-99.43101,19.97035],[-99.43203999999999,19.97093],[-99.43236999999999,19.97114],[-99.43397999999999,19.97222],[-99.43431000000001,19.97241],[-99.43467,19.97268],[-99.43497000000002,19.97295],[-99.43522,19.97322],[-99.43545,19.97356],[-99.43564000000002,19.9739],[-99.43577000000001,19.97422],[-99.43581000000002,19.97435],[-99.43591000000001,19.97479],[-99.43599,19.97529],[-99.43601,19.97554],[-99.43603000000002,19.97592],[-99.43609999999998,19.97661],[-99.43613000000001,19.97726],[-99.43619,19.97802],[-99.43630999999999,19.97873],[-99.43635999999999,19.97891],[-99.43644999999999,19.97911],[-99.43674,19.97974],[-99.43718,19.98067],[-99.43769,19.98175],[-99.43785,19.98209],[-99.43786,19.9821],[-99.43786,19.98211],[-99.43786,19.98212],[-99.43798999999999,19.9824],[-99.43815000000001,19.98266],[-99.43828000000001,19.98288],[-99.43862,19.98334],[-99.43877999999999,19.98354],[-99.43894,19.9837],[-99.43921,19.98395],[-99.43957,19.98423],[-99.43989000000001,19.98446],[-99.44046,19.98476],[-99.44073,19.98487],[-99.44098999999999,19.98497],[-99.44128000000001,19.98506],[-99.44158,19.98516],[-99.44182000000001,19.98524],[-99.44204999999998,19.9853],[-99.44226999999998,19.98536],[-99.44247,19.9854],[-99.44333,19.98558],[-99.44359000000002,19.98566],[-99.44363,19.98567],[-99.44386,19.98573],[-99.44531000000002,19.98614],[-99.4465,19.98645],[-99.44773000000001,19.98679],[-99.44803,19.98688],[-99.44893999999998,19.98711],[-99.44931,19.98721],[-99.45048999999999,19.98754],[-99.45115000000001,19.98769],[-99.452,19.98792],[-99.45321000000001,19.98825],[-99.45442,19.98857],[-99.45655000000001,19.98916],[-99.46109,19.99033],[-99.46389000000001,19.99107],[-99.46905000000001,19.99246],[-99.4712,19.99302],[-99.47299,19.99348],[-99.4734,19.99359],[-99.47358,19.99364],[-99.47359,19.99365],[-99.47378999999998,19.9937],[-99.47589999999998,19.99427],[-99.48253,19.99606],[-99.4836,19.99633],[-99.48550000000002,19.99682],[-99.48685999999999,19.99719],[-99.48839999999998,19.99773],[-99.4902,19.99863],[-99.49573999999998,20.00201],[-99.49662000000001,20.00257],[-99.49672,20.00262],[-99.49852,20.00373],[-99.50060000000001,20.00495],[-99.50228,20.00596],[-99.50242,20.00605],[-99.50564,20.00803],[-99.50821999999999,20.00962],[-99.50865,20.00987],[-99.50945000000002,20.01034],[-99.51582999999999,20.01424],[-99.51776,20.01542],[-99.51828999999999,20.01574],[-99.51890000000002,20.01611],[-99.51989,20.01672],[-99.52018,20.01689],[-99.5202,20.01691],[-99.52021000000001,20.01691],[-99.52046000000001,20.01706],[-99.52543,20.02022],[-99.52678,20.02104],[-99.52908999999998,20.02246],[-99.53317,20.02493],[-99.53417,20.02555],[-99.53503999999998,20.02602],[-99.53553000000001,20.02626],[-99.53601999999999,20.02646],[-99.53652,20.02666],[-99.53991000000002,20.02804],[-99.53997999999999,20.02807],[-99.54326,20.02934],[-99.55015,20.032],[-99.5572,20.0347],[-99.55834,20.03514],[-99.55947999999999,20.03557],[-99.55997000000002,20.03576],[-99.55998000000001,20.03577],[-99.56066,20.03603],[-99.5607,20.03605],[-99.56214,20.03659],[-99.56917,20.03932],[-99.57128,20.04013],[-99.57429999999999,20.04127],[-99.57623,20.04198],[-99.5775,20.04245],[-99.57821000000001,20.04275],[-99.57869,20.04293],[-99.58095,20.04386],[-99.58114000000001,20.04396],[-99.58174,20.04426],[-99.58215999999999,20.04456],[-99.58254,20.0449],[-99.5829,20.04528],[-99.58316999999998,20.04558],[-99.58325000000001,20.04567],[-99.58362,20.04608],[-99.58398,20.04649],[-99.58421999999999,20.04675],[-99.58437000000002,20.04693],[-99.58438999999999,20.04695],[-99.58453,20.0471],[-99.58469,20.04728],[-99.58503,20.04767],[-99.58537,20.04805],[-99.58570999999999,20.04843],[-99.58604,20.04881],[-99.58637999999999,20.04918],[-99.58671,20.04956],[-99.5868,20.04967],[-99.58695,20.04985],[-99.58704,20.04993],[-99.58737000000002,20.05031],[-99.5877,20.05069],[-99.58804000000002,20.05107],[-99.58805000000001,20.05108],[-99.58838000000002,20.05145],[-99.58872000000001,20.05184],[-99.58906,20.05221],[-99.58937999999999,20.05257],[-99.58960000000002,20.05282],[-99.58969,20.05293],[-99.59001000000001,20.05329],[-99.59033000000001,20.05364],[-99.59063999999999,20.054],[-99.59095000000001,20.05435],[-99.59126999999999,20.05471],[-99.59159,20.05508],[-99.59192,20.05546],[-99.59198000000001,20.05552],[-99.59202999999999,20.05558],[-99.59226,20.05583],[-99.59261000000001,20.05621],[-99.59278999999998,20.05639],[-99.59281,20.05641],[-99.59296999999999,20.05658],[-99.59333000000001,20.05697],[-99.59355999999998,20.05721],[-99.5937,20.05737],[-99.59407,20.0578],[-99.59438000000002,20.05814],[-99.59441,20.05818],[-99.59443,20.0582],[-99.59448999999999,20.05826],[-99.59457999999999,20.05837],[-99.59494999999998,20.05879],[-99.59532,20.0592],[-99.59569000000001,20.05961],[-99.59604,20.06001],[-99.59638,20.06039],[-99.5967,20.06074],[-99.59700000000001,20.06107],[-99.59732,20.06138],[-99.59765,20.06168],[-99.59772000000001,20.06173],[-99.59799,20.06201],[-99.59866999999998,20.06258],[-99.59926,20.06304],[-99.60050000000001,20.06407],[-99.60055,20.06411],[-99.60084999999999,20.06435],[-99.60114,20.06461],[-99.60142000000001,20.06489],[-99.60168,20.06519],[-99.60193,20.06552],[-99.60215,20.06587],[-99.60232000000002,20.06619],[-99.60248,20.06661],[-99.60259000000001,20.06698],[-99.60283000000001,20.0677],[-99.60294000000002,20.06807],[-99.60305,20.06836],[-99.60319,20.06866],[-99.60333000000001,20.06889],[-99.60347,20.06911],[-99.60366000000002,20.06933],[-99.60382,20.06951],[-99.60406999999998,20.06974],[-99.60434000000001,20.06995],[-99.60458,20.07012],[-99.60505000000002,20.07039],[-99.60597,20.07083],[-99.60706999999998,20.07136],[-99.60782,20.07171],[-99.60861999999999,20.0721],[-99.60921999999999,20.07239],[-99.60969,20.07264],[-99.61002000000001,20.07282],[-99.61029000000001,20.07299],[-99.61055999999999,20.0732],[-99.61088,20.07344],[-99.61263,20.07491],[-99.61342999999999,20.07557],[-99.61348,20.07561],[-99.61394,20.07599],[-99.61417000000002,20.07618],[-99.61418999999999,20.07619],[-99.61421,20.07621],[-99.61448,20.07643],[-99.61650000000002,20.07816],[-99.61735,20.07886],[-99.61835000000001,20.07969],[-99.61888,20.08014],[-99.61951999999998,20.08069],[-99.61993,20.08101],[-99.62054000000001,20.08141],[-99.62105,20.0817],[-99.62165,20.08192],[-99.62241,20.08217],[-99.62381000000001,20.08244],[-99.62423000000001,20.0825],[-99.62430000000001,20.08251],[-99.62466000000001,20.08258],[-99.62499,20.08264],[-99.62529999999998,20.08269],[-99.62559,20.08275],[-99.62589,20.08281],[-99.62601999999998,20.08283],[-99.62653,20.08291],[-99.62725,20.08303],[-99.62736,20.08305],[-99.62757999999998,20.08309],[-99.62788000000001,20.08314],[-99.62836,20.08322],[-99.62841,20.08323],[-99.62842999999999,20.08323],[-99.62845000000002,20.08323],[-99.6285,20.08323],[-99.62932000000001,20.08325],[-99.62958,20.08325],[-99.62989,20.08324],[-99.63014,20.08322],[-99.63042,20.0832],[-99.63237,20.08293],[-99.63556,20.08247],[-99.63640999999998,20.08235],[-99.63655,20.08232],[-99.63757000000001,20.08215],[-99.63868999999998,20.08199],[-99.63873,20.08198],[-99.63947,20.08187],[-99.64044,20.08171],[-99.64218999999999,20.08146],[-99.64241000000001,20.08145],[-99.64261000000001,20.08142],[-99.64355999999999,20.08129],[-99.64535999999998,20.08105],[-99.64584000000002,20.08097],[-99.64660000000001,20.08083],[-99.64801,20.08062],[-99.64877,20.08051],[-99.6491,20.08047],[-99.64916,20.08047],[-99.64959,20.08045],[-99.65006,20.08046],[-99.65036000000001,20.08047],[-99.65082,20.08048],[-99.65108000000001,20.08051],[-99.65122,20.08052],[-99.65228000000001,20.08066],[-99.65451,20.08118],[-99.65527,20.08138],[-99.65622000000001,20.08162],[-99.65846000000002,20.0822],[-99.66071,20.0828],[-99.66581000000001,20.08409],[-99.67213,20.08577],[-99.67494000000001,20.08652],[-99.67865999999998,20.08745],[-99.68044999999999,20.08793],[-99.68102999999999,20.08808],[-99.68143999999998,20.0882],[-99.68181999999999,20.08832],[-99.68222,20.08847],[-99.68260000000001,20.08864],[-99.68306,20.08886],[-99.6835,20.08909],[-99.68395,20.08936],[-99.68426000000001,20.08956],[-99.68486,20.08997],[-99.68531000000002,20.09032],[-99.68567,20.09058],[-99.68617999999999,20.09105],[-99.68635,20.09123],[-99.68664,20.09149],[-99.68696,20.09181],[-99.687,20.09185],[-99.68709999999999,20.09194],[-99.68711,20.09195],[-99.68721000000001,20.09204],[-99.68725000000002,20.09209],[-99.68729,20.09213],[-99.68762,20.09244],[-99.68795,20.09277],[-99.68829,20.09308],[-99.68863,20.09342],[-99.68898000000002,20.09375],[-99.68935000000001,20.0941],[-99.68971999999998,20.09445],[-99.69009,20.09481],[-99.69045,20.09516],[-99.69081999999999,20.09551],[-99.69119000000001,20.09586],[-99.69150000000001,20.09616],[-99.69156,20.09621],[-99.69192,20.09657],[-99.69229,20.09691],[-99.69265000000002,20.09726],[-99.69302,20.09761],[-99.69338999999998,20.09797],[-99.69376,20.09833],[-99.69413,20.09869],[-99.69494,20.0994],[-99.69643999999998,20.10156],[-99.69651,20.10166],[-99.69655,20.10172],[-99.69659,20.10178],[-99.69659999999999,20.1018],[-99.69676999999999,20.10205],[-99.69704000000002,20.10251],[-99.69781999999999,20.10357],[-99.6979,20.10368],[-99.69810000000001,20.10399],[-99.69849999999998,20.1046],[-99.69978,20.10633],[-99.7003,20.10686],[-99.70098999999999,20.10741],[-99.70146,20.10761],[-99.70242,20.10799],[-99.70740000000001,20.10993],[-99.70926,20.11072],[-99.70941999999999,20.1108],[-99.71046,20.11137],[-99.71099,20.11174],[-99.71176,20.11232],[-99.71279,20.11313],[-99.71420000000001,20.11423],[-99.71536999999999,20.11521],[-99.71626000000001,20.11592],[-99.71913000000001,20.1182],[-99.72187,20.1204],[-99.72203,20.12056],[-99.72257000000001,20.12111],[-99.72313,20.12199],[-99.72374000000001,20.1231],[-99.72442,20.12459],[-99.7246,20.12499],[-99.72560999999999,20.12723],[-99.72571000000002,20.12742],[-99.72602000000001,20.12811],[-99.72814,20.13296],[-99.73102,20.13958],[-99.73251000000001,20.14293],[-99.73305000000002,20.144],[-99.7333,20.14448],[-99.73365,20.14491],[-99.73395999999998,20.14528],[-99.73452,20.14587],[-99.73794,20.14949],[-99.73916,20.15081],[-99.73927999999999,20.15094],[-99.73939999999999,20.15108],[-99.74003999999999,20.15177],[-99.74032,20.15208],[-99.74129000000001,20.15309],[-99.74442999999999,20.15639],[-99.74451999999998,20.15648],[-99.74460999999999,20.15657],[-99.74512000000001,20.15711],[-99.74634000000002,20.15844],[-99.74760000000001,20.15979],[-99.75134,20.16383],[-99.75208000000001,20.16473],[-99.75481000000001,20.16789],[-99.75677,20.17036],[-99.76149,20.17594],[-99.76308,20.17791],[-99.76674000000001,20.18223],[-99.76795,20.18378],[-99.76852000000001,20.18444],[-99.76867,20.18462],[-99.76876,20.18473],[-99.76877,20.18474],[-99.7689,20.1849],[-99.76939,20.18547],[-99.77313,20.18993],[-99.77366000000001,20.19051],[-99.77378,20.19065],[-99.77379999999999,20.19068],[-99.77395,20.19086],[-99.77471,20.19179],[-99.77865,20.19648],[-99.78162,20.2],[-99.78182,20.20025],[-99.78185000000002,20.20029],[-99.78213,20.20064],[-99.78588000000001,20.20513],[-99.78683,20.20628],[-99.78743,20.20697],[-99.78749000000001,20.20702],[-99.78754000000001,20.20708],[-99.79244,20.21109],[-99.79362999999999,20.21207],[-99.79391,20.2123],[-99.79443999999999,20.21273],[-99.79449,20.21277],[-99.79818,20.21577],[-99.80394,20.22048],[-99.8044,20.22086],[-99.80534,20.22162],[-99.80914999999999,20.22474],[-99.80964,20.22515],[-99.81079,20.22608],[-99.81179,20.22691],[-99.81197,20.22705],[-99.81221000000001,20.22725],[-99.81797,20.23193],[-99.82113,20.23449],[-99.82123,20.23457],[-99.82125000000001,20.23459],[-99.82178999999999,20.23503],[-99.82483000000001,20.23751],[-99.82706,20.23933],[-99.82754,20.23972],[-99.82958000000001,20.24138],[-99.83071,20.24229],[-99.83646,20.24694],[-99.83648,20.24696],[-99.83681,20.24723],[-99.8374,20.2477],[-99.83744000000002,20.24774],[-99.84318,20.25237],[-99.84323999999999,20.25243],[-99.84867000000001,20.25689],[-99.84990000000001,20.2579],[-99.8527,20.2602],[-99.85657999999999,20.26338],[-99.85758,20.26402],[-99.85876,20.26442],[-99.85924,20.26459],[-99.86069999999999,20.26515],[-99.86126,20.26537],[-99.8616,20.26551],[-99.86660999999999,20.26739],[-99.8686,20.26815],[-99.87226,20.26952],[-99.87389,20.27014],[-99.87485000000001,20.27051],[-99.87567,20.27083],[-99.88274000000001,20.27351],[-99.88453,20.27419],[-99.88980000000001,20.27619],[-99.89687000000001,20.27888],[-99.89829,20.27942],[-99.90021,20.28015],[-99.90217,20.28111],[-99.90371,20.28199],[-99.90858000000002,20.28478],[-99.91022,20.28572],[-99.91586,20.28883],[-99.91679000000001,20.28934],[-99.91683999999999,20.28937],[-99.91725999999999,20.28961],[-99.91763,20.28982],[-99.91770000000001,20.28986],[-99.91813999999999,20.29012],[-99.91858000000002,20.29038],[-99.91898999999998,20.29063],[-99.91936999999999,20.29085],[-99.91973,20.29107],[-99.92008999999999,20.29128],[-99.92045,20.29149],[-99.92082000000001,20.29171],[-99.92119,20.29193],[-99.92158000000002,20.29216],[-99.92196,20.29239],[-99.92234000000001,20.29261],[-99.92270999999998,20.29283],[-99.92307,20.29304],[-99.92345,20.29326],[-99.9238,20.29347],[-99.92381000000002,20.29347],[-99.92420000000001,20.29368],[-99.92456,20.29387],[-99.92489000000001,20.29405],[-99.92715000000001,20.29523],[-99.92863,20.296],[-99.92965999999998,20.29664],[-99.93026999999998,20.29699],[-99.93037000000001,20.29706],[-99.93042,20.29708],[-99.93057,20.29716],[-99.93073,20.29725],[-99.93091,20.29735],[-99.93111,20.29746],[-99.93131,20.29758],[-99.93153,20.29771],[-99.93176000000001,20.29785],[-99.932,20.29799],[-99.93226000000001,20.29816],[-99.9324,20.29825],[-99.93253,20.29833],[-99.93282000000001,20.29853],[-99.93282000000001,20.29854],[-99.93282999999998,20.29854],[-99.93294,20.29864],[-99.93310000000001,20.29876],[-99.93333,20.29898],[-99.93359999999998,20.29934],[-99.93380999999999,20.29963],[-99.93395,20.29985],[-99.93413,20.30018],[-99.93414,20.30029],[-99.93414999999999,20.30035],[-99.93424,20.30062],[-99.93429999999999,20.30084],[-99.9344,20.30126],[-99.9345,20.3017],[-99.93461000000001,20.30215],[-99.93471000000001,20.3026],[-99.93481,20.30303],[-99.9349,20.30345],[-99.93496,20.30388],[-99.93496,20.30432],[-99.93492000000002,20.30478],[-99.93481999999999,20.30525],[-99.93473,20.30555],[-99.93470000000002,20.30577],[-99.93468,20.30594],[-99.93458,20.30627],[-99.93445,20.30676],[-99.93431,20.30724],[-99.93418,20.30772],[-99.93404000000001,20.30819],[-99.93389999999999,20.30855],[-99.93387000000001,20.30863],[-99.93366,20.30901],[-99.93342999999999,20.3094],[-99.93335999999999,20.30953],[-99.93327000000001,20.30968],[-99.93311,20.30998],[-99.93286999999999,20.31044],[-99.93262,20.31091],[-99.93236999999999,20.31138],[-99.93218,20.31174],[-99.93212,20.31186],[-99.93189,20.31231],[-99.93188000000001,20.31233],[-99.93183000000001,20.31241],[-99.93162,20.3128],[-99.9314,20.31325],[-99.93133,20.31339],[-99.93117,20.3137],[-99.93099000000001,20.31413],[-99.93088,20.31461],[-99.93076999999998,20.31516],[-99.93075000000002,20.31567],[-99.93079,20.3162],[-99.93082000000001,20.31658],[-99.93084,20.31675],[-99.93102,20.31731],[-99.93189,20.31928],[-99.93237999999998,20.32038],[-99.93261,20.32094],[-99.93328,20.32249],[-99.93344,20.32288],[-99.93402,20.32415],[-99.93438999999998,20.32501],[-99.93447999999999,20.32519],[-99.93467,20.32562],[-99.93488000000001,20.32606],[-99.93493000000001,20.32617],[-99.93515999999998,20.32672],[-99.93517,20.32673],[-99.93531999999999,20.32708],[-99.93552,20.32754],[-99.93565999999998,20.32785],[-99.93598000000002,20.32853],[-99.93610000000001,20.32884],[-99.93662000000001,20.3302],[-99.93687000000001,20.3308],[-99.93715000000002,20.33144],[-99.93733,20.33178],[-99.93742,20.33193],[-99.93783999999999,20.33254],[-99.93846000000001,20.33333],[-99.93926000000002,20.33427],[-99.93989999999999,20.33504],[-99.94049000000001,20.33576],[-99.94062,20.33592],[-99.94078,20.33611],[-99.94091,20.33627],[-99.94113,20.33653],[-99.94150000000001,20.33704],[-99.9418,20.33741],[-99.9419,20.33754],[-99.94215999999999,20.33787],[-99.94275999999999,20.33862],[-99.94368,20.33981],[-99.94405999999998,20.34031],[-99.94429,20.34062],[-99.94464000000001,20.34114],[-99.94506,20.34195],[-99.94535999999999,20.34256],[-99.94560000000001,20.34304],[-99.94575,20.34335],[-99.94582999999999,20.34347],[-99.94606,20.34384],[-99.94628,20.34416],[-99.94704999999999,20.34501],[-99.94760999999998,20.34565],[-99.94813000000001,20.34625],[-99.94840000000001,20.3465],[-99.94865999999999,20.34676],[-99.95157,20.34945],[-99.95308,20.35087],[-99.95616000000001,20.35373],[-99.95657,20.35411],[-99.95742,20.35487],[-99.95771000000002,20.35514],[-99.96097,20.3581],[-99.96118,20.35829],[-99.96218,20.3593],[-99.96228000000001,20.35938],[-99.96266000000001,20.35973],[-99.96339999999998,20.36039],[-99.96346,20.36044],[-99.96369,20.36066],[-99.96402999999999,20.36092],[-99.96439000000001,20.36118],[-99.96444999999999,20.36122],[-99.96506000000001,20.36158],[-99.96558,20.36183],[-99.96592,20.36197],[-99.96632,20.36212],[-99.96662000000001,20.36221],[-99.96680000000001,20.36226],[-99.96699,20.36231],[-99.96729999999999,20.36238],[-99.96809,20.3625],[-99.96926000000001,20.36263],[-99.97159000000001,20.36281],[-99.97198,20.36285],[-99.97245000000001,20.36294],[-99.97272,20.36301],[-99.97301,20.36312],[-99.97344,20.3633],[-99.97418,20.36371],[-99.97524,20.36444],[-99.97825,20.36653],[-99.97972000000002,20.36752],[-99.97992000000001,20.36766],[-99.98005000000002,20.36775],[-99.98052,20.36807],[-99.98133,20.36842],[-99.98166000000001,20.36859],[-99.98182,20.36866],[-99.98204,20.36876],[-99.98209,20.36878],[-99.98356999999999,20.36944],[-99.98462000000001,20.36986],[-99.98477,20.36992],[-99.98495000000001,20.37],[-99.98665,20.37068],[-99.98669,20.3707],[-99.98672000000002,20.37071],[-99.98687,20.37077],[-99.98690999999998,20.37079],[-99.98711999999999,20.37088],[-99.98721000000001,20.37091],[-99.98728999999999,20.37094],[-99.98887000000001,20.37159],[-99.98897,20.37164],[-99.99005,20.37211],[-99.99034000000002,20.37222],[-99.99088,20.37245],[-99.99284000000002,20.37326],[-99.99509999999999,20.37416],[-99.99521,20.37421],[-99.99594999999999,20.37452],[-99.99611999999999,20.37459],[-99.99645999999999,20.37474],[-99.99738000000001,20.37512],[-99.9975,20.37516],[-99.99762999999999,20.37521],[-99.99771,20.37525],[-99.99776,20.37527],[-99.99896000000001,20.37575],[-99.99908000000001,20.37579],[-99.99917000000002,20.37583],[-99.99932,20.37589],[-99.99939000000001,20.37592],[-99.99947,20.37596],[-99.99966000000001,20.37604],[-99.99984000000002,20.37612],[-99.99990999999999,20.37615],[-100.00085,20.37653],[-100.00109,20.37661],[-100.00148,20.37671],[-100.00173,20.37674],[-100.00195,20.37677],[-100.00246,20.37679],[-100.00287,20.37677],[-100.0044,20.37666],[-100.00542,20.37662],[-100.00546,20.37662],[-100.00605,20.37659],[-100.00629,20.37661],[-100.0066,20.37664],[-100.00689,20.37669],[-100.0071,20.37674],[-100.00746,20.37689],[-100.00765,20.37697],[-100.00839,20.3774],[-100.00904,20.37786],[-100.01012,20.37864],[-100.01084,20.37914],[-100.01214,20.38001],[-100.01257,20.38038],[-100.01289,20.38071],[-100.01291,20.38073],[-100.01293,20.38075],[-100.01294,20.38075],[-100.01294,20.38076],[-100.01317,20.38105],[-100.01321,20.38108],[-100.0138,20.38187],[-100.01461,20.383],[-100.01594,20.38482],[-100.01637,20.38546],[-100.01666,20.38585],[-100.01695,20.38627],[-100.01733,20.38678],[-100.01735,20.38681],[-100.01744,20.38695],[-100.01792,20.38762],[-100.0188,20.38879],[-100.01968,20.38998],[-100.02084,20.39153],[-100.02126,20.39222],[-100.02135,20.39242],[-100.02145,20.39264],[-100.02163,20.39328],[-100.02197,20.39476],[-100.02207,20.39517],[-100.02208,20.39519],[-100.02216,20.39555],[-100.02235,20.39604],[-100.02246,20.39628],[-100.02276,20.39681],[-100.02296,20.3971],[-100.0231,20.39727],[-100.02331,20.39751],[-100.02392,20.39807],[-100.02402,20.39817],[-100.02456,20.39864],[-100.0246,20.39868],[-100.02533,20.39933],[-100.02647,20.40036],[-100.02755,20.40133],[-100.02763,20.4014],[-100.02776,20.40153],[-100.02799,20.40174],[-100.02819,20.40191],[-100.02906,20.40268],[-100.02927,20.40289],[-100.02964,20.40324],[-100.02987,20.40345],[-100.03016,20.40372],[-100.03018,20.40374],[-100.0302,20.40376],[-100.03024,20.4038],[-100.03118,20.40462],[-100.03166,20.40504],[-100.03229,20.40561],[-100.03266,20.40594],[-100.03431,20.40746],[-100.03433,20.40748],[-100.03452,20.40765],[-100.03655,20.4095],[-100.0387,20.41143],[-100.03977,20.4124],[-100.04093,20.41345],[-100.04257,20.41495],[-100.0431,20.41541],[-100.04447,20.41663],[-100.04526,20.41735],[-100.04795,20.41979],[-100.04995,20.42163],[-100.055,20.42619],[-100.05544,20.42659],[-100.05582,20.42693],[-100.05639,20.42738],[-100.05642,20.42741],[-100.05723,20.42804],[-100.05759,20.42832],[-100.06014,20.43029],[-100.06023,20.43035],[-100.06097,20.43086],[-100.06124,20.43104],[-100.06237,20.43178],[-100.06445,20.43317],[-100.06469,20.43336],[-100.06508,20.43368],[-100.06621,20.43471],[-100.0669,20.43538],[-100.06712,20.43564],[-100.06731,20.4359],[-100.06753,20.43626],[-100.06769,20.43655],[-100.06848,20.43788],[-100.0688,20.43837],[-100.06898,20.43863],[-100.06925,20.439],[-100.06965,20.43956],[-100.06977,20.43972],[-100.06981,20.43978],[-100.06998,20.44005],[-100.07024,20.44038],[-100.07032,20.44048],[-100.07048,20.44066],[-100.07104,20.44112],[-100.07149,20.44148],[-100.0715,20.44149],[-100.07152,20.4415],[-100.07157,20.44154],[-100.07161,20.44158],[-100.07207,20.44196],[-100.07293,20.44269],[-100.07339,20.44306],[-100.07374,20.44335],[-100.0769,20.44585],[-100.0782,20.4469],[-100.07828,20.44697],[-100.07973,20.44813],[-100.08013,20.44844],[-100.08287,20.45064],[-100.08812,20.45483],[-100.08846,20.45511],[-100.09427,20.45976],[-100.10006,20.46441],[-100.10215,20.46606],[-100.10323,20.46709],[-100.10429,20.46857],[-100.10443,20.46878],[-100.10466,20.46913],[-100.10472,20.46921],[-100.10505,20.46973],[-100.10514,20.46987],[-100.10538,20.47017],[-100.10563,20.47052],[-100.10574,20.47067],[-100.10577,20.47071],[-100.10579,20.47073],[-100.10579,20.47074],[-100.10587,20.47085],[-100.10616,20.47123],[-100.10703,20.47237],[-100.10735,20.47281],[-100.10761,20.47319],[-100.10893,20.47507],[-100.1091,20.47531],[-100.11017,20.47678],[-100.1111,20.47807],[-100.11178,20.47904],[-100.11185,20.47914],[-100.11191,20.47922],[-100.11196,20.47931],[-100.11202,20.47939],[-100.11259,20.48016],[-100.11339,20.48124],[-100.11414,20.48223],[-100.11476,20.48293],[-100.11558,20.48361],[-100.11683,20.48454],[-100.11985,20.48694],[-100.12081,20.4877],[-100.1215,20.48824],[-100.12157,20.4883],[-100.1225,20.48904],[-100.12833,20.49366],[-100.13177,20.49639],[-100.1342,20.49823],[-100.13697,20.50041],[-100.13707,20.50049],[-100.13711,20.50052],[-100.13712,20.50053],[-100.13714,20.50055],[-100.13717,20.50057],[-100.13731,20.50068],[-100.13885,20.50191],[-100.13898,20.50201],[-100.14148,20.50395],[-100.14234,20.50462],[-100.14256,20.50479],[-100.14297,20.50512],[-100.14328,20.50539],[-100.1435,20.50556],[-100.14377,20.50579],[-100.14409,20.50605],[-100.14427,20.50616],[-100.1443,20.50618],[-100.14452,20.50632],[-100.1448,20.50652],[-100.14574,20.50708],[-100.14667,20.50752],[-100.14752,20.50783],[-100.14862,20.50826],[-100.15118,20.5094],[-100.15135,20.50947],[-100.15169,20.50961],[-100.15213,20.50979],[-100.15297,20.51014],[-100.15329,20.51027],[-100.15332,20.51029],[-100.15333,20.51029],[-100.15377,20.51048],[-100.15513,20.51104],[-100.15618,20.51153],[-100.15678,20.51189],[-100.15735,20.51229],[-100.15799,20.51281],[-100.15839,20.51317],[-100.15987,20.51443],[-100.16054,20.51502],[-100.16178,20.51607],[-100.16234,20.51654],[-100.16265,20.51678],[-100.1635,20.5174],[-100.16465,20.51823],[-100.16759,20.5204],[-100.16773,20.5205],[-100.16817,20.52082],[-100.16861,20.52112],[-100.16904,20.52144],[-100.16947,20.52175],[-100.16966,20.52189],[-100.17037,20.52241],[-100.17083,20.52274],[-100.17096,20.52283],[-100.17104,20.52289],[-100.17129,20.52307],[-100.17166,20.52335],[-100.172,20.52361],[-100.17248,20.52394],[-100.17285,20.52418],[-100.17338,20.52454],[-100.17393,20.5249],[-100.17448,20.52527],[-100.17504,20.52565],[-100.1756,20.52603],[-100.17614,20.5264],[-100.17669,20.52677],[-100.17725,20.52715],[-100.17781,20.52753],[-100.17837,20.52791],[-100.17894,20.52829],[-100.17922,20.52849],[-100.17944,20.52863],[-100.17988,20.52892],[-100.18033,20.52922],[-100.18077,20.52951],[-100.18121,20.5298],[-100.18164,20.53009],[-100.18209,20.53039],[-100.18254,20.53068],[-100.18299,20.53098],[-100.18342,20.53127],[-100.18385,20.53155],[-100.18428,20.53184],[-100.18471,20.53212],[-100.18516,20.53242],[-100.18546,20.53262],[-100.1856,20.53272],[-100.18602,20.533],[-100.18645,20.53329],[-100.18687,20.53358],[-100.18728,20.53386],[-100.18745,20.53397],[-100.18772,20.53415],[-100.18817,20.53445],[-100.18863,20.53475],[-100.18909,20.53505],[-100.18953,20.53535],[-100.18961,20.5354],[-100.18998,20.53564],[-100.19017,20.53577],[-100.19044,20.53594],[-100.19072,20.53612],[-100.19077,20.53616],[-100.19092,20.53625],[-100.19124,20.53646],[-100.19148,20.53663],[-100.19162,20.53671],[-100.19213,20.53705],[-100.19263,20.53738],[-100.19312,20.53771],[-100.19343,20.53791],[-100.19359,20.53802],[-100.19401,20.5383],[-100.19443,20.53857],[-100.19482,20.53883],[-100.19521,20.53909],[-100.1956,20.53935],[-100.196,20.53962],[-100.1964,20.53988],[-100.1968,20.54015],[-100.19719,20.54041],[-100.19758,20.54067],[-100.19797,20.54092],[-100.19836,20.54118],[-100.19876,20.54145],[-100.19917,20.54171],[-100.19959,20.54198],[-100.20001,20.54225],[-100.20042,20.54253],[-100.20084,20.54281],[-100.20128,20.5431],[-100.20173,20.5434],[-100.20218,20.5437],[-100.20264,20.54401],[-100.20311,20.54432],[-100.20348,20.54457],[-100.20357,20.54463],[-100.20405,20.54495],[-100.20413,20.545],[-100.20448,20.54524],[-100.20451,20.54526],[-100.20474,20.54541],[-100.20491,20.54554],[-100.20505,20.54562],[-100.20538,20.54585],[-100.20589,20.54619],[-100.20639,20.54652],[-100.20689,20.54686],[-100.2074,20.54718],[-100.20779,20.54744],[-100.2079,20.54751],[-100.20838,20.54783],[-100.20885,20.54814],[-100.20932,20.54847],[-100.20979,20.54877],[-100.21026,20.54908],[-100.21075,20.5494],[-100.21123,20.54972],[-100.21171,20.55004],[-100.21218,20.55036],[-100.21264,20.55067],[-100.2131,20.55097],[-100.21354,20.55126],[-100.21397,20.55155],[-100.21402,20.55158],[-100.21439,20.55183],[-100.21479,20.5521],[-100.21844,20.55454],[-100.21957,20.55528],[-100.2201,20.55563],[-100.22267,20.55732],[-100.2231,20.55761],[-100.22361,20.55795],[-100.22406,20.55823],[-100.22457,20.55854],[-100.22509,20.55883],[-100.22519,20.55887],[-100.22521,20.55888],[-100.2253,20.55893],[-100.22532,20.55894],[-100.22546,20.559],[-100.22603,20.55921],[-100.22655,20.55939],[-100.22687,20.5595],[-100.22688,20.55953],[-100.22689,20.55954],[-100.2269,20.55955],[-100.22708,20.55963],[-100.22742,20.55976],[-100.22821,20.56002],[-100.22854,20.56021],[-100.22865,20.56031],[-100.22881,20.56047],[-100.22893,20.56061],[-100.22921,20.561],[-100.22947,20.56146],[-100.22982,20.56214],[-100.23023,20.56293],[-100.23046,20.56337],[-100.23067,20.56373],[-100.2308,20.56398],[-100.23255,20.56733],[-100.23339,20.56888],[-100.23528,20.57252],[-100.23594,20.57379],[-100.23641,20.57472],[-100.23718,20.57619],[-100.2393,20.58018],[-100.23987,20.58129],[-100.24102,20.58334],[-100.24159,20.58424],[-100.24262,20.58569],[-100.24315,20.58638],[-100.24369,20.5871],[-100.24589,20.58996],[-100.24756,20.59216],[-100.24759,20.59221],[-100.24764,20.59227],[-100.24769,20.59234],[-100.24783,20.59252],[-100.24801,20.59275],[-100.25228,20.59833],[-100.25671,20.60413],[-100.26004,20.60847],[-100.26074,20.60941],[-100.26137,20.61023],[-100.2614,20.61028],[-100.26164,20.61059],[-100.2629,20.61223],[-100.26336,20.61286],[-100.26424,20.61415],[-100.26502,20.61533],[-100.26631,20.6173],[-100.26644,20.6175],[-100.2692,20.6217],[-100.26948,20.62212],[-100.26984,20.62266],[-100.2702,20.6232],[-100.27034,20.6234],[-100.27123,20.62473],[-100.27145,20.62507],[-100.27334,20.62792],[-100.27344,20.62808],[-100.27367,20.62845],[-100.27378,20.62861],[-100.27389,20.62877],[-100.27396,20.62889],[-100.27404,20.62901],[-100.27422,20.62929],[-100.27506,20.63058],[-100.27561,20.63139],[-100.27585,20.63176],[-100.27598,20.63195],[-100.2761,20.63213],[-100.27636,20.63252],[-100.27864,20.63603],[-100.2788,20.63626],[-100.27896,20.6365],[-100.27937,20.63713],[-100.27965,20.63755],[-100.28032,20.63855],[-100.28076,20.6392],[-100.28085,20.63933],[-100.28187,20.64074],[-100.2824,20.64147],[-100.28316,20.6425],[-100.28748,20.6484],[-100.29029,20.65226],[-100.2918,20.6543],[-100.29205,20.65465],[-100.29249,20.65525],[-100.2931,20.65609],[-100.29337,20.65646],[-100.29496,20.65862],[-100.29574,20.65971],[-100.29612,20.66022],[-100.29624,20.66038],[-100.29659,20.66088],[-100.29709,20.66154],[-100.29885,20.66396],[-100.29975,20.66525],[-100.30439,20.67225],[-100.30495,20.67307],[-100.30544,20.67378],[-100.30545,20.6738],[-100.30611,20.67483],[-100.30624,20.67505],[-100.30684,20.67595],[-100.30766,20.67718],[-100.30816,20.67794],[-100.30838,20.67827],[-100.30875,20.67881],[-100.309,20.67916],[-100.30914,20.67935],[-100.30928,20.67952],[-100.30956,20.67983],[-100.30971,20.68001],[-100.30991,20.68023],[-100.31014,20.68046],[-100.3104,20.6807],[-100.31072,20.68097],[-100.31112,20.68127],[-100.31168,20.68167],[-100.31225,20.68203],[-100.31246,20.68214],[-100.31287,20.68237],[-100.31385,20.68289],[-100.31532,20.68365],[-100.31582,20.68392],[-100.3169,20.68451],[-100.3179,20.68505],[-100.31907,20.68568],[-100.32235,20.68744],[-100.32245,20.68749],[-100.32334,20.68797],[-100.32448,20.6886],[-100.32483,20.68878],[-100.32621,20.68961],[-100.32654,20.68983],[-100.32685,20.69004],[-100.32715,20.69025],[-100.32753,20.69054],[-100.32871,20.69152],[-100.32984,20.69258],[-100.33034,20.69307],[-100.33399,20.69664],[-100.3354,20.698],[-100.33591,20.69849],[-100.33746,20.70001],[-100.339,20.7015],[-100.34162,20.70393],[-100.34213,20.70437],[-100.34261,20.70478],[-100.34298,20.7051],[-100.34306,20.70517],[-100.34331,20.70535],[-100.34451,20.70616],[-100.34647,20.70753],[-100.34975,20.70986],[-100.35188,20.71138],[-100.35317,20.71228],[-100.35398,20.71283],[-100.3541,20.71293],[-100.35504,20.71359],[-100.35588,20.71417],[-100.35674,20.71477],[-100.35714,20.71505],[-100.35717,20.71508],[-100.35719,20.71509],[-100.35753,20.71533],[-100.35869,20.71615],[-100.35962,20.71681],[-100.36018,20.7172],[-100.36084,20.71766],[-100.36196,20.71846],[-100.36291,20.71914],[-100.36374,20.71974],[-100.36434,20.72021],[-100.36509,20.72086],[-100.36536,20.7211],[-100.3656,20.72133],[-100.36618,20.7219],[-100.3675,20.72329],[-100.36761,20.72341],[-100.3688,20.72469],[-100.36924,20.72517],[-100.36991,20.7259],[-100.3706,20.72664],[-100.3709,20.72695],[-100.37133,20.72741],[-100.37189,20.728],[-100.37254,20.7287],[-100.37305,20.72924],[-100.37337,20.72959],[-100.3736,20.72983],[-100.37488,20.73118],[-100.37576,20.73212],[-100.37604,20.73241],[-100.37631,20.7327],[-100.37763,20.73408],[-100.37769,20.73415],[-100.37776,20.73422],[-100.37841,20.73493],[-100.37873,20.73526],[-100.37897,20.73552],[-100.37942,20.73604],[-100.37987,20.73657],[-100.38028,20.73709],[-100.38087,20.7379],[-100.38113,20.73829],[-100.38136,20.73867],[-100.38149,20.73888],[-100.38163,20.73913],[-100.38173,20.73929],[-100.38203,20.73983],[-100.3821,20.73995],[-100.38254,20.74075],[-100.38302,20.7416],[-100.38343,20.74233],[-100.38443,20.74407],[-100.38446,20.74412],[-100.38469,20.74451],[-100.38493,20.74493],[-100.38518,20.74537],[-100.3855,20.74593],[-100.38602,20.7468],[-100.38636,20.74742],[-100.3869,20.74838],[-100.38735,20.74922],[-100.3878,20.74998],[-100.38808,20.75047],[-100.38835,20.75095],[-100.38886,20.75184],[-100.38934,20.75267],[-100.38982,20.7535],[-100.39037,20.75442],[-100.39048,20.7546],[-100.39076,20.75508],[-100.3911,20.75555],[-100.39171,20.75635],[-100.39195,20.75666],[-100.3922,20.75697],[-100.3927,20.75754],[-100.39304,20.75791],[-100.39445,20.75942],[-100.39537,20.76038],[-100.39652,20.76159],[-100.39724,20.76235],[-100.39785,20.763],[-100.39954,20.76477],[-100.40011,20.76537],[-100.40053,20.7658],[-100.4022,20.76755],[-100.40295,20.76831],[-100.40306,20.76843],[-100.40312,20.76848],[-100.40312,20.76849],[-100.40462,20.77006],[-100.40523,20.77068],[-100.40622,20.77169],[-100.40758,20.7731],[-100.40874,20.77431],[-100.40879,20.77437],[-100.41002,20.77561],[-100.4104,20.77599],[-100.41073,20.77632],[-100.41082,20.7764],[-100.41251,20.77809],[-100.41354,20.77912],[-100.41397,20.77956],[-100.41435,20.77995],[-100.41612,20.78167],[-100.41661,20.78215],[-100.41678,20.78231],[-100.41737,20.78289],[-100.41859,20.78416],[-100.41958,20.78513],[-100.41993,20.78548],[-100.42057,20.78613],[-100.42072,20.78627],[-100.42085,20.7864],[-100.42167,20.78724],[-100.42414,20.78975],[-100.42603,20.79195],[-100.42659,20.7927],[-100.4271,20.79341],[-100.42882,20.79589],[-100.43075,20.7987],[-100.43245,20.80121],[-100.433,20.80202],[-100.43496,20.80466],[-100.43682,20.80743],[-100.43736,20.80819],[-100.43808,20.80923],[-100.43826,20.80946],[-100.43854,20.80977],[-100.43925,20.81059],[-100.4398,20.81118],[-100.44012,20.81149],[-100.44044,20.81181],[-100.4407,20.81204],[-100.44112,20.81242],[-100.44227,20.81338],[-100.44237,20.81346],[-100.44241,20.81349],[-100.44245,20.81352],[-100.44263,20.81367],[-100.44272,20.81375],[-100.4428,20.81382],[-100.44295,20.81396],[-100.4431,20.81408],[-100.44347,20.81438],[-100.4437,20.81456],[-100.44407,20.81481],[-100.44447,20.81504],[-100.44472,20.81517],[-100.44547,20.81553],[-100.44555,20.81557],[-100.44572,20.81565],[-100.44642,20.81605],[-100.44651,20.81621],[-100.44663,20.81632],[-100.4468,20.81652],[-100.44688,20.81661],[-100.44698,20.81675],[-100.44712,20.81699],[-100.4473,20.8174],[-100.4474,20.81775],[-100.44757,20.81841],[-100.44766,20.81873],[-100.44769,20.81893],[-100.44769,20.81908],[-100.44768,20.81925],[-100.44767,20.81942],[-100.44764,20.81962],[-100.44762,20.81977],[-100.44766,20.81995],[-100.44762,20.82003],[-100.44759,20.82015],[-100.44755,20.8203],[-100.44752,20.82041],[-100.44748,20.82054],[-100.44743,20.82064],[-100.4474,20.82071],[-100.44738,20.82075],[-100.44683,20.82183],[-100.44681,20.82188],[-100.44657,20.82214],[-100.4465,20.82224],[-100.44634,20.82258],[-100.44622,20.82285],[-100.44602,20.82326],[-100.44592,20.82346],[-100.44588,20.82355],[-100.44584,20.82361],[-100.44581,20.82363],[-100.44578,20.82365],[-100.44575,20.82366],[-100.44572,20.82366],[-100.44568,20.82366],[-100.44566,20.82365],[-100.44564,20.82365],[-100.44559,20.82354],[-100.44556,20.82348],[-100.44553,20.82345],[-100.44551,20.82342],[-100.44546,20.82338],[-100.44544,20.82336],[-100.44533,20.8233],[-100.44531,20.82329],[-100.44523,20.82324],[-100.44504,20.82313],[-100.44502,20.82312],[-100.44471,20.82296],[-100.4443,20.82274],[-100.44398,20.82261],[-100.44331,20.82238],[-100.44297,20.82225],[-100.44297,20.82224],[-100.44297,20.82222],[-100.44297,20.82221],[-100.44296,20.8222],[-100.44296,20.82219],[-100.44295,20.82218],[-100.44295,20.82217],[-100.44294,20.82215],[-100.44293,20.82214],[-100.44292,20.82213],[-100.44291,20.82212],[-100.4429,20.82212],[-100.44289,20.82211],[-100.44288,20.8221],[-100.44287,20.8221],[-100.44286,20.82209],[-100.44285,20.82209],[-100.44283,20.82208],[-100.44282,20.82208],[-100.44281,20.82208],[-100.44279,20.82208],[-100.44278,20.82208],[-100.44277,20.82208],[-100.44275,20.82208],[-100.44274,20.82209],[-100.44273,20.82209]]}
}
]}